EESchema Schematic File Version 2
LIBS:abdullah
LIBS:power
LIBS:device
LIBS:transistors
LIBS:conn
LIBS:linear
LIBS:regul
LIBS:74xx
LIBS:cmos4000
LIBS:adc-dac
LIBS:memory
LIBS:xilinx
LIBS:special
LIBS:microcontrollers
LIBS:dsp
LIBS:microchip
LIBS:analog_switches
LIBS:motorola
LIBS:texas
LIBS:intel
LIBS:audio
LIBS:interface
LIBS:digital-audio
LIBS:philips
LIBS:display
LIBS:cypress
LIBS:siliconi
LIBS:opto
LIBS:atmel
LIBS:contrib
LIBS:valves
LIBS:XC9536XL-cache
EELAYER 24 0
EELAYER END
$Descr A4 11693 8268
encoding utf-8
Sheet 1 1
Title "XC9536XL Development Board"
Date "02 Temmuz 2014 Çarşamba"
Rev ""
Comp "AHSA Elektronik"
Comment1 ""
Comment2 ""
Comment3 ""
Comment4 ""
$EndDescr
$Comp
L XC9536XL U3
U 1 1 53B4493F
P 5450 3800
F 0 "U3" H 4450 5750 60  0000 C CNN
F 1 "XC9536XL" H 4600 1900 60  0000 C CNN
F 2 "new-abdullah:VQFP-44" H 4100 5300 60  0001 C CNN
F 3 "" H 4100 5300 60  0000 C CNN
	1    5450 3800
	1    0    0    -1  
$EndComp
$Comp
L CONNECTOR-2 P1
U 1 1 53B4231C
P 800 1200
F 0 "P1" H 750 900 60  0000 C CNN
F 1 "Power" H 800 1350 50  0000 C CNN
F 2 "abdullah:Connector-2pin-300th-425th-PS-200th" H 800 1200 60  0001 C CNN
F 3 "" H 800 1200 60  0000 C CNN
	1    800  1200
	1    0    0    1   
$EndComp
$Comp
L +3.3V #PWR01
U 1 1 53B423AB
P 3100 900
F 0 "#PWR01" H 3100 860 30  0001 C CNN
F 1 "+3.3V" H 3100 1050 50  0000 C CNN
F 2 "" H 3100 900 60  0000 C CNN
F 3 "" H 3100 900 60  0000 C CNN
	1    3100 900 
	1    0    0    -1  
$EndComp
$Comp
L NCP1117ST33T3G U2
U 1 1 53B426FD
P 2500 1100
F 0 "U2" H 2300 900 40  0000 C CNN
F 1 "DF1117-3.3" H 2500 1300 40  0000 C CNN
F 2 "abdullah:SOT-223-3-EP" H 2500 1100 60  0001 C CNN
F 3 "" H 2500 1100 60  0000 C CNN
	1    2500 1100
	1    0    0    -1  
$EndComp
$Comp
L C-vert C3
U 1 1 53B429CD
P 1900 1350
F 0 "C3" H 2050 1400 50  0000 L CNN
F 1 "1u" H 2050 1300 50  0000 L CNN
F 2 "abdullah:SMD-1206" H 1900 1350 60  0001 C CNN
F 3 "" H 1900 1350 60  0000 C CNN
F 4 "V" H 2050 1200 40  0001 L CNN "Voltage"
	1    1900 1350
	1    0    0    -1  
$EndComp
$Comp
L C-vert C5
U 1 1 53B42A56
P 3100 1350
F 0 "C5" H 3250 1400 50  0000 L CNN
F 1 "100n" H 3250 1300 50  0000 L CNN
F 2 "abdullah:SMD-0805" H 3100 1350 60  0001 C CNN
F 3 "" H 3100 1350 60  0000 C CNN
F 4 "V" H 3250 1200 40  0001 L CNN "Voltage"
	1    3100 1350
	1    0    0    -1  
$EndComp
$Comp
L C-vert C6
U 1 1 53B42ACB
P 3600 1350
F 0 "C6" H 3750 1400 50  0000 L CNN
F 1 "10uF" H 3750 1300 50  0000 L CNN
F 2 "abdullah:SMD-0805" H 3600 1350 60  0001 C CNN
F 3 "" H 3600 1350 60  0000 C CNN
F 4 "16V" H 3750 1200 40  0000 L CNN "Voltage"
	1    3600 1350
	1    0    0    -1  
$EndComp
$Comp
L GND #PWR02
U 1 1 53B42B2D
P 3600 1600
F 0 "#PWR02" H 3600 1600 30  0001 C CNN
F 1 "GND" H 3600 1530 30  0001 C CNN
F 2 "" H 3600 1600 60  0000 C CNN
F 3 "" H 3600 1600 60  0000 C CNN
	1    3600 1600
	1    0    0    -1  
$EndComp
$Comp
L GND #PWR03
U 1 1 53B42B51
P 3100 1600
F 0 "#PWR03" H 3100 1600 30  0001 C CNN
F 1 "GND" H 3100 1530 30  0001 C CNN
F 2 "" H 3100 1600 60  0000 C CNN
F 3 "" H 3100 1600 60  0000 C CNN
	1    3100 1600
	1    0    0    -1  
$EndComp
$Comp
L GND #PWR04
U 1 1 53B42B7D
P 1900 1600
F 0 "#PWR04" H 1900 1600 30  0001 C CNN
F 1 "GND" H 1900 1530 30  0001 C CNN
F 2 "" H 1900 1600 60  0000 C CNN
F 3 "" H 1900 1600 60  0000 C CNN
	1    1900 1600
	1    0    0    -1  
$EndComp
$Comp
L GND #PWR05
U 1 1 53B42B9E
P 2500 1600
F 0 "#PWR05" H 2500 1600 30  0001 C CNN
F 1 "GND" H 2500 1530 30  0001 C CNN
F 2 "" H 2500 1600 60  0000 C CNN
F 3 "" H 2500 1600 60  0000 C CNN
	1    2500 1600
	1    0    0    -1  
$EndComp
$Comp
L CP-vert C2
U 1 1 53B42C76
P 1350 1350
F 0 "C2" H 1500 1400 50  0000 L CNN
F 1 "100uF" H 1500 1300 50  0000 L CNN
F 2 "abdullah:ELKO-DIA-200th-PS-200th" H 1350 1350 60  0001 C CNN
F 3 "" H 1350 1350 60  0000 C CNN
F 4 "16V" H 1500 1200 40  0000 L CNN "Voltage"
	1    1350 1350
	1    0    0    -1  
$EndComp
$Comp
L GND #PWR06
U 1 1 53B42F78
P 1350 1600
F 0 "#PWR06" H 1350 1600 30  0001 C CNN
F 1 "GND" H 1350 1530 30  0001 C CNN
F 2 "" H 1350 1600 60  0000 C CNN
F 3 "" H 1350 1600 60  0000 C CNN
	1    1350 1600
	1    0    0    -1  
$EndComp
$Comp
L GND #PWR07
U 1 1 53B43018
P 1100 1600
F 0 "#PWR07" H 1100 1600 30  0001 C CNN
F 1 "GND" H 1100 1530 30  0001 C CNN
F 2 "" H 1100 1600 60  0000 C CNN
F 3 "" H 1100 1600 60  0000 C CNN
	1    1100 1600
	1    0    0    -1  
$EndComp
$Comp
L C-vert C9
U 1 1 53B654A3
P 5850 1350
F 0 "C9" H 6000 1400 50  0000 L CNN
F 1 "100n" H 6000 1300 50  0000 L CNN
F 2 "abdullah:SMD-0805" H 5850 1350 60  0001 C CNN
F 3 "" H 5850 1350 60  0000 C CNN
F 4 "V" H 6000 1200 40  0001 L CNN "Voltage"
	1    5850 1350
	1    0    0    -1  
$EndComp
$Comp
L C-vert C10
U 1 1 53B65585
P 6350 1350
F 0 "C10" H 6500 1400 50  0000 L CNN
F 1 "100n" H 6500 1300 50  0000 L CNN
F 2 "abdullah:SMD-0805" H 6350 1350 60  0001 C CNN
F 3 "" H 6350 1350 60  0000 C CNN
F 4 "V" H 6500 1200 40  0001 L CNN "Voltage"
	1    6350 1350
	1    0    0    -1  
$EndComp
$Comp
L C-vert C8
U 1 1 53B6559F
P 4950 1350
F 0 "C8" H 5100 1400 50  0000 L CNN
F 1 "100n" H 5100 1300 50  0000 L CNN
F 2 "abdullah:SMD-0805" H 4950 1350 60  0001 C CNN
F 3 "" H 4950 1350 60  0000 C CNN
F 4 "V" H 5100 1200 40  0001 L CNN "Voltage"
	1    4950 1350
	1    0    0    -1  
$EndComp
$Comp
L C-vert C7
U 1 1 53B655EF
P 4450 1350
F 0 "C7" H 4600 1400 50  0000 L CNN
F 1 "1uF" H 4600 1300 50  0000 L CNN
F 2 "abdullah:SMD-1206" H 4450 1350 60  0001 C CNN
F 3 "" H 4450 1350 60  0000 C CNN
F 4 "V" H 4600 1200 40  0001 L CNN "Voltage"
	1    4450 1350
	1    0    0    -1  
$EndComp
$Comp
L GND #PWR08
U 1 1 53B656EE
P 4950 1600
F 0 "#PWR08" H 4950 1600 30  0001 C CNN
F 1 "GND" H 4950 1530 30  0001 C CNN
F 2 "" H 4950 1600 60  0000 C CNN
F 3 "" H 4950 1600 60  0000 C CNN
	1    4950 1600
	1    0    0    -1  
$EndComp
$Comp
L GND #PWR09
U 1 1 53B656F9
P 5850 1600
F 0 "#PWR09" H 5850 1600 30  0001 C CNN
F 1 "GND" H 5850 1530 30  0001 C CNN
F 2 "" H 5850 1600 60  0000 C CNN
F 3 "" H 5850 1600 60  0000 C CNN
	1    5850 1600
	1    0    0    -1  
$EndComp
$Comp
L GND #PWR010
U 1 1 53B65719
P 4450 1600
F 0 "#PWR010" H 4450 1600 30  0001 C CNN
F 1 "GND" H 4450 1530 30  0001 C CNN
F 2 "" H 4450 1600 60  0000 C CNN
F 3 "" H 4450 1600 60  0000 C CNN
	1    4450 1600
	1    0    0    -1  
$EndComp
$Comp
L GND #PWR011
U 1 1 53B6589B
P 6350 1600
F 0 "#PWR011" H 6350 1600 30  0001 C CNN
F 1 "GND" H 6350 1530 30  0001 C CNN
F 2 "" H 6350 1600 60  0000 C CNN
F 3 "" H 6350 1600 60  0000 C CNN
	1    6350 1600
	1    0    0    -1  
$EndComp
$Comp
L +3.3V #PWR012
U 1 1 53B65CEB
P 5450 950
F 0 "#PWR012" H 5450 910 30  0001 C CNN
F 1 "+3.3V" H 5450 1100 50  0000 C CNN
F 2 "" H 5450 950 60  0000 C CNN
F 3 "" H 5450 950 60  0000 C CNN
	1    5450 950 
	1    0    0    -1  
$EndComp
$Comp
L R-hrz R15
U 1 1 53BFAD28
P 9400 2300
F 0 "R15" H 9150 2350 50  0000 C CNN
F 1 "1k" H 9400 2300 50  0000 C CNN
F 2 "abdullah:SMD-1206" H 9400 2300 60  0001 C CNN
F 3 "" H 9400 2300 60  0000 C CNN
F 4 "W" H 9410 2300 40  0001 C CNN "Wattage"
	1    9400 2300
	1    0    0    -1  
$EndComp
$Comp
L R-hrz R16
U 1 1 53BFAE02
P 9400 2450
F 0 "R16" H 9150 2500 50  0000 C CNN
F 1 "1k" H 9400 2450 50  0000 C CNN
F 2 "abdullah:SMD-1206" H 9400 2450 60  0001 C CNN
F 3 "" H 9400 2450 60  0000 C CNN
F 4 "W" H 9410 2450 40  0001 C CNN "Wattage"
	1    9400 2450
	1    0    0    -1  
$EndComp
$Comp
L DB15 J1
U 1 1 53BFB20A
P 10900 3000
F 0 "J1" H 10920 3850 70  0000 C CNN
F 1 "DB15" H 10850 2150 70  0000 C CNN
F 2 "new-abdullah:DB-15" H 10900 3000 60  0001 C CNN
F 3 "" H 10900 3000 60  0000 C CNN
	1    10900 3000
	1    0    0    1   
$EndComp
$Comp
L LED D1
U 1 1 53BFB7F3
P 9950 4550
F 0 "D1" H 9800 4600 50  0000 C CNN
F 1 "LED" H 9800 4500 50  0000 C CNN
F 2 "abdullah:SOD-123" H 9950 4550 60  0001 C CNN
F 3 "" H 9950 4550 60  0000 C CNN
	1    9950 4550
	1    0    0    -1  
$EndComp
$Comp
L LED D2
U 1 1 53BFBA2C
P 9950 4750
F 0 "D2" H 9800 4800 50  0000 C CNN
F 1 "LED" H 9800 4700 50  0000 C CNN
F 2 "abdullah:SOD-123" H 9950 4750 60  0001 C CNN
F 3 "" H 9950 4750 60  0000 C CNN
	1    9950 4750
	1    0    0    -1  
$EndComp
$Comp
L LED D3
U 1 1 53BFBA44
P 9950 4950
F 0 "D3" H 9800 5000 50  0000 C CNN
F 1 "LED" H 9800 4900 50  0000 C CNN
F 2 "abdullah:SOD-123" H 9950 4950 60  0001 C CNN
F 3 "" H 9950 4950 60  0000 C CNN
	1    9950 4950
	1    0    0    -1  
$EndComp
$Comp
L LED D4
U 1 1 53BFBA59
P 9950 5150
F 0 "D4" H 9800 5200 50  0000 C CNN
F 1 "LED" H 9800 5100 50  0000 C CNN
F 2 "abdullah:SOD-123" H 9950 5150 60  0001 C CNN
F 3 "" H 9950 5150 60  0000 C CNN
	1    9950 5150
	1    0    0    -1  
$EndComp
$Comp
L LED D5
U 1 1 53BFBB05
P 9950 5350
F 0 "D5" H 9800 5400 50  0000 C CNN
F 1 "LED" H 9800 5300 50  0000 C CNN
F 2 "abdullah:SOD-123" H 9950 5350 60  0001 C CNN
F 3 "" H 9950 5350 60  0000 C CNN
	1    9950 5350
	1    0    0    -1  
$EndComp
$Comp
L LED D6
U 1 1 53BFBB0B
P 9950 5550
F 0 "D6" H 9800 5600 50  0000 C CNN
F 1 "LED" H 9800 5500 50  0000 C CNN
F 2 "abdullah:SOD-123" H 9950 5550 60  0001 C CNN
F 3 "" H 9950 5550 60  0000 C CNN
	1    9950 5550
	1    0    0    -1  
$EndComp
$Comp
L LED D7
U 1 1 53BFBB11
P 9950 5750
F 0 "D7" H 9800 5800 50  0000 C CNN
F 1 "LED" H 9800 5700 50  0000 C CNN
F 2 "abdullah:SOD-123" H 9950 5750 60  0001 C CNN
F 3 "" H 9950 5750 60  0000 C CNN
	1    9950 5750
	1    0    0    -1  
$EndComp
$Comp
L LED D8
U 1 1 53BFBB17
P 9950 5950
F 0 "D8" H 9800 6000 50  0000 C CNN
F 1 "LED" H 9800 5900 50  0000 C CNN
F 2 "abdullah:SOD-123" H 9950 5950 60  0001 C CNN
F 3 "" H 9950 5950 60  0000 C CNN
	1    9950 5950
	1    0    0    -1  
$EndComp
$Comp
L R-hrz R28
U 1 1 53BFBE30
P 9400 4550
F 0 "R28" H 9150 4600 50  0000 C CNN
F 1 "330R" H 9400 4550 50  0000 C CNN
F 2 "abdullah:SMD-0805" H 9400 4550 60  0001 C CNN
F 3 "" H 9400 4550 60  0000 C CNN
F 4 "W" H 9410 4550 40  0001 C CNN "Wattage"
	1    9400 4550
	1    0    0    -1  
$EndComp
$Comp
L DIPS_08 SW2
U 1 1 53BFD1FF
P 1450 2600
F 0 "SW2" V 1000 2500 60  0000 L CNN
F 1 "DIPS_08" V 1950 2450 60  0001 L CNN
F 2 "abdullah:DIP-Switch-8" H 1450 2600 60  0001 C CNN
F 3 "" H 1450 2600 60  0000 C CNN
	1    1450 2600
	0    1    1    0   
$EndComp
$Comp
L +3.3V #PWR013
U 1 1 53BFD660
P 1000 2150
F 0 "#PWR013" H 1000 2110 30  0001 C CNN
F 1 "+3.3V" H 1000 2300 50  0000 C CNN
F 2 "" H 1000 2150 60  0000 C CNN
F 3 "" H 1000 2150 60  0000 C CNN
	1    1000 2150
	1    0    0    -1  
$EndComp
$Comp
L R-hrz R2
U 1 1 53BFDBB9
P 2100 2250
F 0 "R2" H 1850 2300 50  0000 C CNN
F 1 "330R" H 2100 2250 50  0000 C CNN
F 2 "abdullah:SMD-0805" H 2100 2250 60  0001 C CNN
F 3 "" H 2100 2250 60  0000 C CNN
F 4 "W" H 2110 2250 40  0001 C CNN "Wattage"
	1    2100 2250
	1    0    0    -1  
$EndComp
$Comp
L R-hrz R3
U 1 1 53BFDC95
P 2100 2350
F 0 "R3" H 1850 2400 50  0000 C CNN
F 1 "330R" H 2100 2350 50  0000 C CNN
F 2 "abdullah:SMD-0805" H 2100 2350 60  0001 C CNN
F 3 "" H 2100 2350 60  0000 C CNN
F 4 "W" H 2110 2350 40  0001 C CNN "Wattage"
	1    2100 2350
	1    0    0    -1  
$EndComp
$Comp
L R-hrz R4
U 1 1 53BFE13D
P 2100 2450
F 0 "R4" H 1850 2500 50  0000 C CNN
F 1 "330R" H 2100 2450 50  0000 C CNN
F 2 "abdullah:SMD-0805" H 2100 2450 60  0001 C CNN
F 3 "" H 2100 2450 60  0000 C CNN
F 4 "W" H 2110 2450 40  0001 C CNN "Wattage"
	1    2100 2450
	1    0    0    -1  
$EndComp
$Comp
L R-hrz R5
U 1 1 53BFE144
P 2100 2550
F 0 "R5" H 1850 2600 50  0000 C CNN
F 1 "330R" H 2100 2550 50  0000 C CNN
F 2 "abdullah:SMD-0805" H 2100 2550 60  0001 C CNN
F 3 "" H 2100 2550 60  0000 C CNN
F 4 "W" H 2110 2550 40  0001 C CNN "Wattage"
	1    2100 2550
	1    0    0    -1  
$EndComp
$Comp
L R-hrz R6
U 1 1 53BFE1C5
P 2100 2650
F 0 "R6" H 1850 2700 50  0000 C CNN
F 1 "330R" H 2100 2650 50  0000 C CNN
F 2 "abdullah:SMD-0805" H 2100 2650 60  0001 C CNN
F 3 "" H 2100 2650 60  0000 C CNN
F 4 "W" H 2110 2650 40  0001 C CNN "Wattage"
	1    2100 2650
	1    0    0    -1  
$EndComp
$Comp
L R-hrz R7
U 1 1 53BFE1CC
P 2100 2750
F 0 "R7" H 1850 2800 50  0000 C CNN
F 1 "330R" H 2100 2750 50  0000 C CNN
F 2 "abdullah:SMD-0805" H 2100 2750 60  0001 C CNN
F 3 "" H 2100 2750 60  0000 C CNN
F 4 "W" H 2110 2750 40  0001 C CNN "Wattage"
	1    2100 2750
	1    0    0    -1  
$EndComp
$Comp
L R-hrz R8
U 1 1 53BFE1D3
P 2100 2850
F 0 "R8" H 1850 2900 50  0000 C CNN
F 1 "330R" H 2100 2850 50  0000 C CNN
F 2 "abdullah:SMD-0805" H 2100 2850 60  0001 C CNN
F 3 "" H 2100 2850 60  0000 C CNN
F 4 "W" H 2110 2850 40  0001 C CNN "Wattage"
	1    2100 2850
	1    0    0    -1  
$EndComp
$Comp
L R-hrz R9
U 1 1 53BFE1DA
P 2100 2950
F 0 "R9" H 1850 3000 50  0000 C CNN
F 1 "330R" H 2100 2950 50  0000 C CNN
F 2 "abdullah:SMD-0805" H 2100 2950 60  0001 C CNN
F 3 "" H 2100 2950 60  0000 C CNN
F 4 "W" H 2110 2950 40  0001 C CNN "Wattage"
	1    2100 2950
	1    0    0    -1  
$EndComp
$Comp
L R-hrz R29
U 1 1 53BFEC1F
P 9400 4750
F 0 "R29" H 9150 4800 50  0000 C CNN
F 1 "330R" H 9400 4750 50  0000 C CNN
F 2 "abdullah:SMD-0805" H 9400 4750 60  0001 C CNN
F 3 "" H 9400 4750 60  0000 C CNN
F 4 "W" H 9410 4750 40  0001 C CNN "Wattage"
	1    9400 4750
	1    0    0    -1  
$EndComp
$Comp
L R-hrz R30
U 1 1 53BFEC7E
P 9400 4950
F 0 "R30" H 9150 5000 50  0000 C CNN
F 1 "330R" H 9400 4950 50  0000 C CNN
F 2 "abdullah:SMD-0805" H 9400 4950 60  0001 C CNN
F 3 "" H 9400 4950 60  0000 C CNN
F 4 "W" H 9410 4950 40  0001 C CNN "Wattage"
	1    9400 4950
	1    0    0    -1  
$EndComp
$Comp
L R-hrz R31
U 1 1 53BFEC85
P 9400 5150
F 0 "R31" H 9150 5200 50  0000 C CNN
F 1 "330R" H 9400 5150 50  0000 C CNN
F 2 "abdullah:SMD-0805" H 9400 5150 60  0001 C CNN
F 3 "" H 9400 5150 60  0000 C CNN
F 4 "W" H 9410 5150 40  0001 C CNN "Wattage"
	1    9400 5150
	1    0    0    -1  
$EndComp
$Comp
L R-hrz R32
U 1 1 53BFED06
P 9400 5350
F 0 "R32" H 9150 5400 50  0000 C CNN
F 1 "330R" H 9400 5350 50  0000 C CNN
F 2 "abdullah:SMD-0805" H 9400 5350 60  0001 C CNN
F 3 "" H 9400 5350 60  0000 C CNN
F 4 "W" H 9410 5350 40  0001 C CNN "Wattage"
	1    9400 5350
	1    0    0    -1  
$EndComp
$Comp
L R-hrz R33
U 1 1 53BFED0D
P 9400 5550
F 0 "R33" H 9150 5600 50  0000 C CNN
F 1 "330R" H 9400 5550 50  0000 C CNN
F 2 "abdullah:SMD-0805" H 9400 5550 60  0001 C CNN
F 3 "" H 9400 5550 60  0000 C CNN
F 4 "W" H 9410 5550 40  0001 C CNN "Wattage"
	1    9400 5550
	1    0    0    -1  
$EndComp
$Comp
L R-hrz R34
U 1 1 53BFED14
P 9400 5750
F 0 "R34" H 9150 5800 50  0000 C CNN
F 1 "330R" H 9400 5750 50  0000 C CNN
F 2 "abdullah:SMD-0805" H 9400 5750 60  0001 C CNN
F 3 "" H 9400 5750 60  0000 C CNN
F 4 "W" H 9410 5750 40  0001 C CNN "Wattage"
	1    9400 5750
	1    0    0    -1  
$EndComp
$Comp
L R-hrz R35
U 1 1 53BFED1B
P 9400 5950
F 0 "R35" H 9150 6000 50  0000 C CNN
F 1 "330R" H 9400 5950 50  0000 C CNN
F 2 "abdullah:SMD-0805" H 9400 5950 60  0001 C CNN
F 3 "" H 9400 5950 60  0000 C CNN
F 4 "W" H 9410 5950 40  0001 C CNN "Wattage"
	1    9400 5950
	1    0    0    -1  
$EndComp
$Comp
L SG-615P U1
U 1 1 53C0058F
P 1950 3750
F 0 "U1" H 1700 4000 60  0000 C CNN
F 1 "SG-615P" H 1950 3500 60  0000 C CNN
F 2 "new-abdullah:SG-615P" V 1350 3700 60  0001 C CNN
F 3 "" V 1350 3700 60  0000 C CNN
F 4 "25.175 MHz" H 1950 3400 60  0000 C CNN "Frequency"
	1    1950 3750
	1    0    0    -1  
$EndComp
$Comp
L GND #PWR014
U 1 1 53C010BC
P 1250 4150
F 0 "#PWR014" H 1250 4150 30  0001 C CNN
F 1 "GND" H 1250 4080 30  0001 C CNN
F 2 "" H 1250 4150 60  0000 C CNN
F 3 "" H 1250 4150 60  0000 C CNN
	1    1250 4150
	1    0    0    -1  
$EndComp
$Comp
L GND #PWR015
U 1 1 53C0257A
P 10050 3200
F 0 "#PWR015" H 10050 3200 30  0001 C CNN
F 1 "GND" H 10050 3130 30  0001 C CNN
F 2 "" H 10050 3200 60  0000 C CNN
F 3 "" H 10050 3200 60  0000 C CNN
	1    10050 3200
	1    0    0    -1  
$EndComp
$Comp
L R-hrz R14
U 1 1 53C110DA
P 9400 2150
F 0 "R14" H 9150 2200 50  0000 C CNN
F 1 "1k" H 9400 2150 50  0000 C CNN
F 2 "abdullah:SMD-1206" H 9400 2150 60  0001 C CNN
F 3 "" H 9400 2150 60  0000 C CNN
F 4 "W" H 9410 2150 40  0001 C CNN "Wattage"
	1    9400 2150
	1    0    0    -1  
$EndComp
$Comp
L R-hrz R17
U 1 1 53C11662
P 9400 2600
F 0 "R17" H 9150 2650 50  0000 C CNN
F 1 "1k" H 9400 2600 50  0000 C CNN
F 2 "abdullah:SMD-1206" H 9400 2600 60  0001 C CNN
F 3 "" H 9400 2600 60  0000 C CNN
F 4 "W" H 9410 2600 40  0001 C CNN "Wattage"
	1    9400 2600
	1    0    0    -1  
$EndComp
$Comp
L R-hrz R11
U 1 1 53C1167A
P 8850 2600
F 0 "R11" H 8850 2700 50  0000 C CNN
F 1 "1k" H 8850 2600 50  0000 C CNN
F 2 "abdullah:SMD-1206" H 8850 2600 60  0001 C CNN
F 3 "" H 8850 2600 60  0000 C CNN
F 4 "W" H 8860 2600 40  0001 C CNN "Wattage"
	1    8850 2600
	1    0    0    -1  
$EndComp
$Comp
L R-hrz R19
U 1 1 53C1183C
P 9400 2900
F 0 "R19" H 9150 2950 50  0000 C CNN
F 1 "1k" H 9400 2900 50  0000 C CNN
F 2 "abdullah:SMD-1206" H 9400 2900 60  0001 C CNN
F 3 "" H 9400 2900 60  0000 C CNN
F 4 "W" H 9410 2900 40  0001 C CNN "Wattage"
	1    9400 2900
	1    0    0    -1  
$EndComp
$Comp
L R-hrz R20
U 1 1 53C11843
P 9400 3050
F 0 "R20" H 9150 3100 50  0000 C CNN
F 1 "1k" H 9400 3050 50  0000 C CNN
F 2 "abdullah:SMD-1206" H 9400 3050 60  0001 C CNN
F 3 "" H 9400 3050 60  0000 C CNN
F 4 "W" H 9410 3050 40  0001 C CNN "Wattage"
	1    9400 3050
	1    0    0    -1  
$EndComp
$Comp
L R-hrz R18
U 1 1 53C11850
P 9400 2750
F 0 "R18" H 9150 2800 50  0000 C CNN
F 1 "1k" H 9400 2750 50  0000 C CNN
F 2 "abdullah:SMD-1206" H 9400 2750 60  0001 C CNN
F 3 "" H 9400 2750 60  0000 C CNN
F 4 "W" H 9410 2750 40  0001 C CNN "Wattage"
	1    9400 2750
	1    0    0    -1  
$EndComp
$Comp
L R-hrz R21
U 1 1 53C1185B
P 9400 3200
F 0 "R21" H 9150 3250 50  0000 C CNN
F 1 "1k" H 9400 3200 50  0000 C CNN
F 2 "abdullah:SMD-1206" H 9400 3200 60  0001 C CNN
F 3 "" H 9400 3200 60  0000 C CNN
F 4 "W" H 9410 3200 40  0001 C CNN "Wattage"
	1    9400 3200
	1    0    0    -1  
$EndComp
$Comp
L R-hrz R12
U 1 1 53C11862
P 8850 3200
F 0 "R12" H 8850 3300 50  0000 C CNN
F 1 "1k" H 8850 3200 50  0000 C CNN
F 2 "abdullah:SMD-1206" H 8850 3200 60  0001 C CNN
F 3 "" H 8850 3200 60  0000 C CNN
F 4 "W" H 8860 3200 40  0001 C CNN "Wattage"
	1    8850 3200
	1    0    0    -1  
$EndComp
$Comp
L R-hrz R23
U 1 1 53C119E8
P 9400 3500
F 0 "R23" H 9150 3550 50  0000 C CNN
F 1 "1k" H 9400 3500 50  0000 C CNN
F 2 "abdullah:SMD-1206" H 9400 3500 60  0001 C CNN
F 3 "" H 9400 3500 60  0000 C CNN
F 4 "W" H 9410 3500 40  0001 C CNN "Wattage"
	1    9400 3500
	1    0    0    -1  
$EndComp
$Comp
L R-hrz R24
U 1 1 53C119EF
P 9400 3650
F 0 "R24" H 9150 3700 50  0000 C CNN
F 1 "1k" H 9400 3650 50  0000 C CNN
F 2 "abdullah:SMD-1206" H 9400 3650 60  0001 C CNN
F 3 "" H 9400 3650 60  0000 C CNN
F 4 "W" H 9410 3650 40  0001 C CNN "Wattage"
	1    9400 3650
	1    0    0    -1  
$EndComp
$Comp
L R-hrz R22
U 1 1 53C119FB
P 9400 3350
F 0 "R22" H 9150 3400 50  0000 C CNN
F 1 "1k" H 9400 3350 50  0000 C CNN
F 2 "abdullah:SMD-1206" H 9400 3350 60  0001 C CNN
F 3 "" H 9400 3350 60  0000 C CNN
F 4 "W" H 9410 3350 40  0001 C CNN "Wattage"
	1    9400 3350
	1    0    0    -1  
$EndComp
$Comp
L R-hrz R25
U 1 1 53C11A06
P 9400 3800
F 0 "R25" H 9150 3850 50  0000 C CNN
F 1 "1k" H 9400 3800 50  0000 C CNN
F 2 "abdullah:SMD-1206" H 9400 3800 60  0001 C CNN
F 3 "" H 9400 3800 60  0000 C CNN
F 4 "W" H 9410 3800 40  0001 C CNN "Wattage"
	1    9400 3800
	1    0    0    -1  
$EndComp
$Comp
L R-hrz R13
U 1 1 53C11A0D
P 8850 3800
F 0 "R13" H 8850 3900 50  0000 C CNN
F 1 "1k" H 8850 3800 50  0000 C CNN
F 2 "abdullah:SMD-1206" H 8850 3800 60  0001 C CNN
F 3 "" H 8850 3800 60  0000 C CNN
F 4 "W" H 8860 3800 40  0001 C CNN "Wattage"
	1    8850 3800
	1    0    0    -1  
$EndComp
$Comp
L R-hrz R26
U 1 1 53C1235A
P 9400 4000
F 0 "R26" H 9150 4050 50  0000 C CNN
F 1 "1k" H 9400 4000 50  0000 C CNN
F 2 "abdullah:SMD-1206" H 9400 4000 60  0001 C CNN
F 3 "" H 9400 4000 60  0000 C CNN
F 4 "W" H 9410 4000 40  0001 C CNN "Wattage"
	1    9400 4000
	1    0    0    -1  
$EndComp
$Comp
L R-hrz R27
U 1 1 53C12374
P 9400 4150
F 0 "R27" H 9150 4200 50  0000 C CNN
F 1 "1k" H 9400 4150 50  0000 C CNN
F 2 "abdullah:SMD-1206" H 9400 4150 60  0001 C CNN
F 3 "" H 9400 4150 60  0000 C CNN
F 4 "W" H 9410 4150 40  0001 C CNN "Wattage"
	1    9400 4150
	1    0    0    -1  
$EndComp
$Comp
L CONNECTOR-7+7-SeriDizilim P2
U 1 1 53C1513C
P 1950 6950
F 0 "P2" H 1750 7550 60  0000 C CNN
F 1 "JTAG" H 1950 6300 60  0000 C CNN
F 2 "abdullah:FlatCable-Connector-14" H 1950 7100 60  0001 C CNN
F 3 "" H 1950 7100 60  0000 C CNN
	1    1950 6950
	1    0    0    -1  
$EndComp
$Comp
L SW_PUSH SW1
U 1 1 53C38783
P 1350 5600
F 0 "SW1" V 1400 5750 35  0000 C CNN
F 1 "SW_PUSH" H 1350 5520 50  0001 C CNN
F 2 "abdullah:SW_Push-Small-250th-175th-Big-Pads" H 1350 5600 60  0001 C CNN
F 3 "" H 1350 5600 60  0000 C CNN
	1    1350 5600
	0    -1   -1   0   
$EndComp
$Comp
L R-vert R1
U 1 1 53C38C51
P 1350 5000
F 0 "R1" H 1430 5050 50  0000 L CNN
F 1 "10k" H 1430 4950 50  0000 L CNN
F 2 "abdullah:SMD-0805" H 1350 5000 60  0001 C CNN
F 3 "" H 1350 5000 60  0000 C CNN
F 4 "W" H 1430 4850 40  0001 L CNN "Wattage"
	1    1350 5000
	-1   0    0    -1  
$EndComp
$Comp
L +3.3V #PWR016
U 1 1 53C38EC3
P 1350 4700
F 0 "#PWR016" H 1350 4660 30  0001 C CNN
F 1 "+3.3V" H 1350 4850 50  0000 C CNN
F 2 "" H 1350 4700 60  0000 C CNN
F 3 "" H 1350 4700 60  0000 C CNN
	1    1350 4700
	1    0    0    -1  
$EndComp
$Comp
L GND #PWR017
U 1 1 53C391C7
P 1350 5900
F 0 "#PWR017" H 1350 5900 30  0001 C CNN
F 1 "GND" H 1350 5830 30  0001 C CNN
F 2 "" H 1350 5900 60  0000 C CNN
F 3 "" H 1350 5900 60  0000 C CNN
	1    1350 5900
	1    0    0    -1  
$EndComp
$Comp
L SW_PUSH SW3
U 1 1 53C396FD
P 2450 5550
F 0 "SW3" V 2500 5700 35  0000 C CNN
F 1 "SW_PUSH" H 2450 5470 50  0001 C CNN
F 2 "abdullah:SW_Push-Small-250th-175th-Big-Pads" H 2450 5550 60  0001 C CNN
F 3 "" H 2450 5550 60  0000 C CNN
	1    2450 5550
	0    -1   -1   0   
$EndComp
$Comp
L R-vert R10
U 1 1 53C39704
P 2450 4950
F 0 "R10" H 2530 5000 50  0000 L CNN
F 1 "10k" H 2530 4900 50  0000 L CNN
F 2 "abdullah:SMD-0805" H 2450 4950 60  0001 C CNN
F 3 "" H 2450 4950 60  0000 C CNN
F 4 "W" H 2530 4800 40  0001 L CNN "Wattage"
	1    2450 4950
	-1   0    0    -1  
$EndComp
$Comp
L +3.3V #PWR018
U 1 1 53C3970A
P 2450 4650
F 0 "#PWR018" H 2450 4610 30  0001 C CNN
F 1 "+3.3V" H 2450 4800 50  0000 C CNN
F 2 "" H 2450 4650 60  0000 C CNN
F 3 "" H 2450 4650 60  0000 C CNN
	1    2450 4650
	1    0    0    -1  
$EndComp
$Comp
L GND #PWR019
U 1 1 53C39711
P 2450 5850
F 0 "#PWR019" H 2450 5850 30  0001 C CNN
F 1 "GND" H 2450 5780 30  0001 C CNN
F 2 "" H 2450 5850 60  0000 C CNN
F 3 "" H 2450 5850 60  0000 C CNN
	1    2450 5850
	1    0    0    -1  
$EndComp
$Comp
L GND #PWR020
U 1 1 53C39E05
P 10200 4600
F 0 "#PWR020" H 10200 4600 30  0001 C CNN
F 1 "GND" H 10200 4530 30  0001 C CNN
F 2 "" H 10200 4600 60  0000 C CNN
F 3 "" H 10200 4600 60  0000 C CNN
	1    10200 4600
	1    0    0    -1  
$EndComp
$Comp
L GND #PWR021
U 1 1 53C39FC1
P 10200 4800
F 0 "#PWR021" H 10200 4800 30  0001 C CNN
F 1 "GND" H 10200 4730 30  0001 C CNN
F 2 "" H 10200 4800 60  0000 C CNN
F 3 "" H 10200 4800 60  0000 C CNN
	1    10200 4800
	1    0    0    -1  
$EndComp
$Comp
L GND #PWR022
U 1 1 53C3A007
P 10200 5000
F 0 "#PWR022" H 10200 5000 30  0001 C CNN
F 1 "GND" H 10200 4930 30  0001 C CNN
F 2 "" H 10200 5000 60  0000 C CNN
F 3 "" H 10200 5000 60  0000 C CNN
	1    10200 5000
	1    0    0    -1  
$EndComp
$Comp
L GND #PWR023
U 1 1 53C3A00F
P 10200 5200
F 0 "#PWR023" H 10200 5200 30  0001 C CNN
F 1 "GND" H 10200 5130 30  0001 C CNN
F 2 "" H 10200 5200 60  0000 C CNN
F 3 "" H 10200 5200 60  0000 C CNN
	1    10200 5200
	1    0    0    -1  
$EndComp
$Comp
L GND #PWR024
U 1 1 53C3A093
P 10200 5400
F 0 "#PWR024" H 10200 5400 30  0001 C CNN
F 1 "GND" H 10200 5330 30  0001 C CNN
F 2 "" H 10200 5400 60  0000 C CNN
F 3 "" H 10200 5400 60  0000 C CNN
	1    10200 5400
	1    0    0    -1  
$EndComp
$Comp
L GND #PWR025
U 1 1 53C3A09B
P 10200 5600
F 0 "#PWR025" H 10200 5600 30  0001 C CNN
F 1 "GND" H 10200 5530 30  0001 C CNN
F 2 "" H 10200 5600 60  0000 C CNN
F 3 "" H 10200 5600 60  0000 C CNN
	1    10200 5600
	1    0    0    -1  
$EndComp
$Comp
L GND #PWR026
U 1 1 53C3A0A3
P 10200 5800
F 0 "#PWR026" H 10200 5800 30  0001 C CNN
F 1 "GND" H 10200 5730 30  0001 C CNN
F 2 "" H 10200 5800 60  0000 C CNN
F 3 "" H 10200 5800 60  0000 C CNN
	1    10200 5800
	1    0    0    -1  
$EndComp
$Comp
L GND #PWR027
U 1 1 53C3A0AB
P 10200 6000
F 0 "#PWR027" H 10200 6000 30  0001 C CNN
F 1 "GND" H 10200 5930 30  0001 C CNN
F 2 "" H 10200 6000 60  0000 C CNN
F 3 "" H 10200 6000 60  0000 C CNN
	1    10200 6000
	1    0    0    -1  
$EndComp
$Comp
L GND #PWR028
U 1 1 53C3A761
P 1400 7450
F 0 "#PWR028" H 1400 7450 30  0001 C CNN
F 1 "GND" H 1400 7380 30  0001 C CNN
F 2 "" H 1400 7450 60  0000 C CNN
F 3 "" H 1400 7450 60  0000 C CNN
	1    1400 7450
	1    0    0    -1  
$EndComp
$Comp
L +3.3V #PWR029
U 1 1 53C3B5F9
P 2500 6450
F 0 "#PWR029" H 2500 6410 30  0001 C CNN
F 1 "+3.3V" H 2500 6600 50  0000 C CNN
F 2 "" H 2500 6450 60  0000 C CNN
F 3 "" H 2500 6450 60  0000 C CNN
	1    2500 6450
	1    0    0    -1  
$EndComp
Text Label 2600 6650 2    60   ~ 0
TMS
Text Label 2600 6800 2    60   ~ 0
TCK
Text Label 2600 6950 2    60   ~ 0
TDO
Text Label 2600 7100 2    60   ~ 0
TDI
NoConn ~ 2400 7250
NoConn ~ 2400 7400
Text Label 3900 5450 0    60   ~ 0
TMS
Text Label 3900 5150 0    60   ~ 0
TCK
Text Label 3900 5000 0    60   ~ 0
TDO
Text Label 3900 5300 0    60   ~ 0
TDI
Text Label 2800 2250 2    60   ~ 0
DIP_SW_0
Text Label 2800 2350 2    60   ~ 0
DIP_SW_1
Text Label 2800 2450 2    60   ~ 0
DIP_SW_2
Text Label 2800 2550 2    60   ~ 0
DIP_SW_3
Text Label 2800 2650 2    60   ~ 0
DIP_SW_4
Text Label 2800 2750 2    60   ~ 0
DIP_SW_5
Text Label 2800 2850 2    60   ~ 0
DIP_SW_6
Text Label 2800 2950 2    60   ~ 0
DIP_SW_7
Text Label 2650 3500 0    60   ~ 0
OSC_OUT
Text Label 2950 3850 2    60   ~ 0
OSC_EN
Text Label 1800 5300 2    60   ~ 0
Button_0
Text Label 2900 5250 2    60   ~ 0
Button_1
Text Label 3450 2600 0    60   ~ 0
OSC_OUT
Text Label 7500 3350 2    60   ~ 0
LED_0
Text Label 8750 4750 0    60   ~ 0
LED_1
Text Label 8750 4950 0    60   ~ 0
LED_2
Text Label 8750 5150 0    60   ~ 0
LED_3
Text Label 8750 5350 0    60   ~ 0
LED_4
Text Label 8750 5550 0    60   ~ 0
LED_5
Text Label 8750 5750 0    60   ~ 0
LED_6
Text Label 8750 5950 0    60   ~ 0
LED_7
$Comp
L GND #PWR030
U 1 1 53C42D1C
P 6950 5550
F 0 "#PWR030" H 6950 5550 30  0001 C CNN
F 1 "GND" H 6950 5480 30  0001 C CNN
F 2 "" H 6950 5550 60  0000 C CNN
F 3 "" H 6950 5550 60  0000 C CNN
	1    6950 5550
	1    0    0    -1  
$EndComp
Text Label 7950 2300 0    60   ~ 0
VGA_RED_0
Text Label 7950 2450 0    60   ~ 0
VGA_RED_1
Text Label 7950 2600 0    60   ~ 0
VGA_RED_2
Text Label 7950 2900 0    60   ~ 0
VGA_GREEN_0
Text Label 7950 3050 0    60   ~ 0
VGA_GREEN_1
Text Label 7950 3200 0    60   ~ 0
VGA_GREEN_2
Text Label 7950 3500 0    60   ~ 0
VGA_BLUE_0
Text Label 7950 3650 0    60   ~ 0
VGA_BLUE_1
Text Label 7950 3800 0    60   ~ 0
VGA_BLUE_2
Text Label 7950 4000 0    60   ~ 0
VGA_HSYNC
Text Label 7950 4150 0    60   ~ 0
VGA_VSYNC
Text Label 3450 3800 0    60   ~ 0
VGA_RED_0
Text Label 3450 3050 0    60   ~ 0
VGA_GREEN_0
Text Label 3450 3350 0    60   ~ 0
VGA_GREEN_1
Text Label 3450 3500 0    60   ~ 0
VGA_GREEN_2
Text Label 3450 3650 0    60   ~ 0
VGA_RED_1
Text Label 3450 3950 0    60   ~ 0
VGA_RED_2
Text Label 3450 3200 0    60   ~ 0
VGA_BLUE_0
Text Label 3450 2900 0    60   ~ 0
VGA_BLUE_1
Text Label 3450 2750 0    60   ~ 0
VGA_BLUE_2
Text Label 3450 2450 0    60   ~ 0
VGA_HSYNC
Text Label 3450 2300 0    60   ~ 0
VGA_VSYNC
Text Label 7500 3200 2    60   ~ 0
LED_1
Text Label 7500 3050 2    60   ~ 0
LED_2
Text Label 7500 2900 2    60   ~ 0
LED_3
Text Label 7500 2600 2    60   ~ 0
LED_4
Text Label 7500 2750 2    60   ~ 0
LED_5
Text Label 7500 2450 2    60   ~ 0
LED_6
Text Label 7500 2300 2    60   ~ 0
LED_7
Text Label 3450 4100 0    60   ~ 0
DIP_SW_0
Text Label 3450 4250 0    60   ~ 0
DIP_SW_1
Text Label 3450 4400 0    60   ~ 0
DIP_SW_2
Text Label 3450 4550 0    60   ~ 0
DIP_SW_3
Text Label 3450 4700 0    60   ~ 0
DIP_SW_4
Text Label 7500 4700 2    60   ~ 0
DIP_SW_5
Text Label 7500 4550 2    60   ~ 0
DIP_SW_6
Text Label 7500 4400 2    60   ~ 0
DIP_SW_7
Text Label 7500 3800 2    60   ~ 0
Button_0
Text Label 7500 4100 2    60   ~ 0
Button_1
Text Label 8750 4550 0    60   ~ 0
LED_0
$Comp
L C-vert C4
U 1 1 53C4D969
P 2950 6750
F 0 "C4" H 3100 6800 50  0000 L CNN
F 1 "100n" H 3100 6700 50  0000 L CNN
F 2 "abdullah:SMD-0805" H 2950 6750 60  0001 C CNN
F 3 "" H 2950 6750 60  0000 C CNN
F 4 "V" H 3100 6600 40  0001 L CNN "Voltage"
	1    2950 6750
	1    0    0    -1  
$EndComp
$Comp
L GND #PWR031
U 1 1 53C4DED1
P 2950 7000
F 0 "#PWR031" H 2950 7000 30  0001 C CNN
F 1 "GND" H 2950 6930 30  0001 C CNN
F 2 "" H 2950 7000 60  0000 C CNN
F 3 "" H 2950 7000 60  0000 C CNN
	1    2950 7000
	1    0    0    -1  
$EndComp
Wire Wire Line
	3100 900  3100 1150
Wire Wire Line
	2900 1050 3600 1050
Connection ~ 3100 1050
Wire Wire Line
	3600 1050 3600 1150
Wire Wire Line
	3600 1600 3600 1550
Wire Wire Line
	3100 1550 3100 1600
Wire Wire Line
	1900 1050 1900 1150
Wire Wire Line
	1000 1050 2100 1050
Wire Wire Line
	1900 1600 1900 1550
Wire Wire Line
	2500 1600 2500 1350
Wire Wire Line
	1350 1050 1350 1150
Connection ~ 1900 1050
Wire Wire Line
	1350 1600 1350 1550
Connection ~ 1350 1050
Wire Wire Line
	1000 1200 1100 1200
Wire Wire Line
	1100 1200 1100 1600
Wire Wire Line
	4450 1050 6350 1050
Wire Wire Line
	4950 1050 4950 1150
Wire Wire Line
	5450 950  5450 1600
Connection ~ 5450 1050
Wire Wire Line
	5850 1050 5850 1150
Wire Wire Line
	6350 1050 6350 1150
Connection ~ 5850 1050
Wire Wire Line
	4450 1050 4450 1150
Connection ~ 4950 1050
Wire Wire Line
	4450 1600 4450 1550
Wire Wire Line
	4950 1600 4950 1550
Wire Wire Line
	5850 1600 5850 1550
Wire Wire Line
	6350 1600 6350 1550
Wire Wire Line
	5300 1600 5300 1550
Wire Wire Line
	5300 1550 5600 1550
Connection ~ 5450 1550
Wire Wire Line
	5600 1550 5600 1600
Wire Wire Line
	1000 2150 1000 2950
Wire Wire Line
	1000 2250 1250 2250
Wire Wire Line
	1000 2350 1250 2350
Connection ~ 1000 2250
Wire Wire Line
	1000 2450 1250 2450
Connection ~ 1000 2350
Wire Wire Line
	1000 2550 1250 2550
Connection ~ 1000 2450
Wire Wire Line
	1000 2650 1250 2650
Connection ~ 1000 2550
Wire Wire Line
	1000 2750 1250 2750
Connection ~ 1000 2650
Wire Wire Line
	1000 2850 1250 2850
Connection ~ 1000 2750
Wire Wire Line
	1000 2950 1250 2950
Connection ~ 1000 2850
Wire Wire Line
	1850 2250 1650 2250
Wire Wire Line
	1650 2350 1850 2350
Wire Wire Line
	1850 2450 1650 2450
Wire Wire Line
	1650 2550 1850 2550
Wire Wire Line
	1850 2650 1650 2650
Wire Wire Line
	1650 2750 1850 2750
Wire Wire Line
	1850 2850 1650 2850
Wire Wire Line
	1650 2950 1850 2950
Wire Wire Line
	9650 4550 9750 4550
Wire Wire Line
	9650 4750 9750 4750
Wire Wire Line
	9750 4950 9650 4950
Wire Wire Line
	9650 5150 9750 5150
Wire Wire Line
	9750 5350 9650 5350
Wire Wire Line
	9650 5550 9750 5550
Wire Wire Line
	9750 5750 9650 5750
Wire Wire Line
	9650 5950 9750 5950
Wire Wire Line
	1250 4150 1250 3850
Wire Wire Line
	1250 3850 1400 3850
Wire Wire Line
	9650 2300 10450 2300
Wire Wire Line
	9700 2450 9650 2450
Wire Wire Line
	9700 2150 9700 2600
Connection ~ 9700 2300
Wire Wire Line
	9700 2600 9650 2600
Connection ~ 9700 2450
Wire Wire Line
	9800 2900 9800 2500
Wire Wire Line
	9800 2500 10450 2500
Wire Wire Line
	9900 3500 9900 2700
Wire Wire Line
	9900 2700 10450 2700
Wire Wire Line
	10050 3200 10050 3100
Wire Wire Line
	10050 3100 10450 3100
Wire Wire Line
	10450 3200 10200 3200
Wire Wire Line
	10200 3200 10200 4000
Wire Wire Line
	10200 4000 9650 4000
Wire Wire Line
	10450 3400 10300 3400
Wire Wire Line
	10300 3400 10300 4150
Wire Wire Line
	10300 4150 9650 4150
Wire Wire Line
	9650 2150 9700 2150
Wire Wire Line
	7950 2300 9150 2300
Wire Wire Line
	9050 2300 9050 2150
Wire Wire Line
	9050 2150 9150 2150
Wire Wire Line
	9150 2600 9100 2600
Wire Wire Line
	9700 3050 9650 3050
Wire Wire Line
	9700 2750 9700 3200
Connection ~ 9700 2900
Wire Wire Line
	9700 3200 9650 3200
Connection ~ 9700 3050
Wire Wire Line
	9650 2750 9700 2750
Wire Wire Line
	7950 2900 9150 2900
Wire Wire Line
	9050 2900 9050 2750
Wire Wire Line
	9050 2750 9150 2750
Wire Wire Line
	9150 3200 9100 3200
Wire Wire Line
	9650 2900 9800 2900
Wire Wire Line
	9700 3650 9650 3650
Wire Wire Line
	9700 3350 9700 3800
Connection ~ 9700 3500
Wire Wire Line
	9700 3800 9650 3800
Connection ~ 9700 3650
Wire Wire Line
	9650 3350 9700 3350
Wire Wire Line
	7950 3500 9150 3500
Wire Wire Line
	9050 3500 9050 3350
Wire Wire Line
	9050 3350 9150 3350
Wire Wire Line
	9150 3800 9100 3800
Wire Wire Line
	9650 3500 9900 3500
Wire Wire Line
	1350 4700 1350 4750
Wire Wire Line
	1350 5900 1350 5850
Wire Wire Line
	1350 5250 1350 5350
Wire Wire Line
	2450 4650 2450 4700
Wire Wire Line
	2450 5850 2450 5800
Wire Wire Line
	2450 5200 2450 5300
Wire Wire Line
	10200 4600 10200 4550
Wire Wire Line
	10200 4550 10150 4550
Wire Wire Line
	10200 4800 10200 4750
Wire Wire Line
	10200 4750 10150 4750
Wire Wire Line
	10200 5000 10200 4950
Wire Wire Line
	10200 4950 10150 4950
Wire Wire Line
	10200 5200 10200 5150
Wire Wire Line
	10200 5150 10150 5150
Wire Wire Line
	10200 5400 10200 5350
Wire Wire Line
	10200 5350 10150 5350
Wire Wire Line
	10200 5600 10200 5550
Wire Wire Line
	10200 5550 10150 5550
Wire Wire Line
	10200 5800 10200 5750
Wire Wire Line
	10200 5750 10150 5750
Wire Wire Line
	10200 6000 10200 5950
Wire Wire Line
	10200 5950 10150 5950
Wire Wire Line
	1400 6500 1400 7450
Wire Wire Line
	1400 7400 1500 7400
Wire Wire Line
	1500 7250 1400 7250
Connection ~ 1400 7400
Wire Wire Line
	1500 7100 1400 7100
Connection ~ 1400 7250
Wire Wire Line
	1500 6950 1400 6950
Connection ~ 1400 7100
Wire Wire Line
	1500 6800 1400 6800
Connection ~ 1400 6950
Wire Wire Line
	1500 6650 1400 6650
Connection ~ 1400 6800
Wire Wire Line
	1500 6500 1400 6500
Connection ~ 1400 6650
Wire Wire Line
	2500 6450 2500 6500
Wire Wire Line
	2400 6500 2950 6500
Wire Wire Line
	2600 6650 2400 6650
Wire Wire Line
	2600 6800 2400 6800
Wire Wire Line
	2600 6950 2400 6950
Wire Wire Line
	2600 7100 2400 7100
Wire Wire Line
	3900 5000 4100 5000
Wire Wire Line
	3900 5150 4100 5150
Wire Wire Line
	3900 5300 4100 5300
Wire Wire Line
	3900 5450 4100 5450
Wire Wire Line
	2800 2250 2350 2250
Wire Wire Line
	2800 2350 2350 2350
Wire Wire Line
	2800 2450 2350 2450
Wire Wire Line
	2800 2550 2350 2550
Wire Wire Line
	2800 2650 2350 2650
Wire Wire Line
	2800 2750 2350 2750
Wire Wire Line
	2800 2850 2350 2850
Wire Wire Line
	2800 2950 2350 2950
Wire Wire Line
	2950 3850 2500 3850
Wire Wire Line
	1800 5300 1350 5300
Connection ~ 1350 5300
Wire Wire Line
	2900 5250 2450 5250
Connection ~ 2450 5250
Wire Wire Line
	8750 4550 9150 4550
Wire Wire Line
	8750 4750 9150 4750
Wire Wire Line
	8750 4950 9150 4950
Wire Wire Line
	8750 5150 9150 5150
Wire Wire Line
	8750 5350 9150 5350
Wire Wire Line
	8750 5550 9150 5550
Wire Wire Line
	8750 5750 9150 5750
Wire Wire Line
	8750 5950 9150 5950
Wire Wire Line
	6950 5150 6950 5550
Wire Wire Line
	6950 5450 6850 5450
Wire Wire Line
	6850 5300 6950 5300
Connection ~ 6950 5450
Wire Wire Line
	6850 5150 6950 5150
Connection ~ 6950 5300
Wire Wire Line
	7950 2600 8600 2600
Wire Wire Line
	7950 2450 9150 2450
Connection ~ 9050 2300
Wire Wire Line
	7950 3200 8600 3200
Wire Wire Line
	7950 3050 9150 3050
Wire Wire Line
	7950 3800 8600 3800
Wire Wire Line
	7950 3650 9150 3650
Wire Wire Line
	7950 4000 9150 4000
Wire Wire Line
	9150 4150 7950 4150
Wire Wire Line
	2950 6500 2950 6550
Connection ~ 2500 6500
Wire Wire Line
	2950 7000 2950 6950
Wire Wire Line
	3450 2300 4100 2300
Wire Wire Line
	3450 2450 4100 2450
Wire Wire Line
	3450 2600 4100 2600
Wire Wire Line
	3450 2750 4100 2750
Wire Wire Line
	3450 2900 4100 2900
Wire Wire Line
	3450 3050 4100 3050
Wire Wire Line
	3450 3200 4100 3200
Wire Wire Line
	3450 3350 4100 3350
Wire Wire Line
	3450 3500 4100 3500
Wire Wire Line
	3450 3650 4100 3650
Wire Wire Line
	3450 3800 4100 3800
Wire Wire Line
	3450 4100 4100 4100
Wire Wire Line
	3450 4250 4100 4250
Wire Wire Line
	3450 4400 4100 4400
Wire Wire Line
	3450 4550 4100 4550
Wire Wire Line
	3450 4700 4100 4700
Wire Wire Line
	7500 2300 6850 2300
Wire Wire Line
	6850 2450 7500 2450
Wire Wire Line
	7500 2600 6850 2600
Wire Wire Line
	6850 2750 7500 2750
Wire Wire Line
	7500 2900 6850 2900
Wire Wire Line
	6850 3050 7500 3050
Wire Wire Line
	7500 3200 6850 3200
Wire Wire Line
	6850 3350 7500 3350
Wire Wire Line
	6850 3800 7500 3800
Wire Wire Line
	7500 4700 6850 4700
Wire Wire Line
	6850 4550 7500 4550
Wire Wire Line
	7500 4400 6850 4400
$Comp
L +3.3V #PWR032
U 1 1 53C4076A
P 1250 3550
F 0 "#PWR032" H 1250 3510 30  0001 C CNN
F 1 "+3.3V" H 1250 3700 50  0000 C CNN
F 2 "" H 1250 3550 60  0000 C CNN
F 3 "" H 1250 3550 60  0000 C CNN
	1    1250 3550
	1    0    0    -1  
$EndComp
Wire Wire Line
	1250 3650 1400 3650
Wire Wire Line
	1250 3650 1250 3550
Wire Wire Line
	3450 3950 4100 3950
Connection ~ 9050 2900
Connection ~ 9050 3500
Wire Wire Line
	6850 4100 7500 4100
$Comp
L R-hrz RJ1
U 1 1 53C65CDC
P 2800 3650
F 0 "RJ1" H 2550 3700 50  0000 C CNN
F 1 "0R" H 2800 3650 50  0000 C CNN
F 2 "new-abdullah:SMD-JUMPER" H 2800 3650 60  0001 C CNN
F 3 "" H 2800 3650 60  0000 C CNN
F 4 "W" H 2810 3650 40  0001 C CNN "Wattage"
	1    2800 3650
	1    0    0    -1  
$EndComp
Wire Wire Line
	3050 3500 3050 3650
Wire Wire Line
	2650 3500 3050 3500
Wire Wire Line
	2550 3650 2500 3650
$EndSCHEMATC
