<?xml version="1.0" standalone="no"?>
 <!DOCTYPE svg PUBLIC "-//W3C//DTD SVG 1.1//EN" 
 "http://www.w3.org/Graphics/SVG/1.1/DTD/svg11.dtd"> 
<svg xmlns="http://www.w3.org/2000/svg" version="1.1" 
    width="29.7002cm" height="21.0007cm" viewBox="0 0 116930 82680 ">
<title>SVG Picture created as XC9536XL-B_Cu.svg date 2014/07/17 10:24:19 </title>
  <desc>Picture generated by PCBNEW </desc>
<g style="fill:#000000; fill-opacity:1;stroke:#000000; stroke-opacity:1;
stroke-linecap:round; stroke-linejoin:round; "
 transform="translate(0 0) scale(1 1)">
</g>
<g style="fill:#000000; fill-opacity:1.0; 
stroke:#000000; stroke-width:19.685; stroke-opacity:1; 
stroke-linecap:round; stroke-linejoin:round;">
<rect x="21297.2" y="38797.2" width="43076.3" height="27155.5" rx="0" />
</g>
<g style="fill:#FFFFFF; fill-opacity:1.0; 
stroke:#FFFFFF; stroke-width:150; stroke-opacity:1; 
stroke-linecap:round; stroke-linejoin:round;">
</g>
<g style="fill:#FFFFFF; fill-opacity:0.0; 
stroke:#FFFFFF; stroke-width:150; stroke-opacity:1; 
stroke-linecap:round; stroke-linejoin:round;">
<circle cx="60500" cy="41750" r="656.168" /> 
<path d="M59515 41750
L61484 41750
" />
<path d="M60500 40765
L60500 42734
" />
<circle cx="60500" cy="63000" r="656.168" /> 
<path d="M59515 63000
L61484 63000
" />
<path d="M60500 62015
L60500 63984
" />
<circle cx="24250" cy="63000" r="656.168" /> 
<path d="M23265 63000
L25234 63000
" />
<path d="M24250 62015
L24250 63984
" />
<circle cx="24250" cy="41750" r="656.168" /> 
<path d="M23265 41750
L25234 41750
" />
<path d="M24250 40765
L24250 42734
" />
<path d="M25000 62250
L25000 42500
" />
<path d="M59750 62250
L25000 62250
" />
<path d="M59750 42500
L59750 62250
" />
<path d="M25000 42500
L59750 42500
" />
</g>
<g style="fill:#FFFFFF; fill-opacity:0.0; 
stroke:#FFFFFF; stroke-width:450; stroke-opacity:1; 
stroke-linecap:round; stroke-linejoin:round;">
<path d="M29825 46500
L30175 46500
" />
<path d="M29825 44500
L30175 44500
" />
</g>
<g style="fill:#FFFFFF; fill-opacity:0.0; 
stroke:#FFFFFF; stroke-width:1000; stroke-opacity:1; 
stroke-linecap:round; stroke-linejoin:round;">
<path d="M26750 46500
L26750 46500
" />
<path d="M26750 44500
L26750 44500
" />
</g>
<g style="fill:#FFFFFF; fill-opacity:0.0; 
stroke:#FFFFFF; stroke-width:600; stroke-opacity:1; 
stroke-linecap:round; stroke-linejoin:round;">
<path d="M26650 50750
L26850 50750
" />
<path d="M27650 50750
L27850 50750
" />
<path d="M26650 51750
L26850 51750
" />
<path d="M27650 51750
L27850 51750
" />
<path d="M26650 52750
L26850 52750
" />
<path d="M27650 52750
L27850 52750
" />
<path d="M26650 53750
L26850 53750
" />
<path d="M27650 53750
L27850 53750
" />
<path d="M26650 54750
L26850 54750
" />
<path d="M27650 54750
L27850 54750
" />
<path d="M26650 55750
L26850 55750
" />
<path d="M27650 55750
L27850 55750
" />
<path d="M26650 56750
L26850 56750
" />
<path d="M27650 56750
L27850 56750
" />
</g>
<g style="fill:#FFFFFF; fill-opacity:0.0; 
stroke:#FFFFFF; stroke-width:700; stroke-opacity:1; 
stroke-linecap:round; stroke-linejoin:round;">
<path d="M46350 58650
L46350 58850
" />
<path d="M48150 58650
L48150 58850
" />
<path d="M46350 61150
L46350 61350
" />
<path d="M48150 61150
L48150 61350
" />
</g>
<g style="fill:#FFFFFF; fill-opacity:0.0; 
stroke:#FFFFFF; stroke-width:600; stroke-opacity:1; 
stroke-linecap:round; stroke-linejoin:round;">
<path d="M37750 58050
L37750 58450
" />
<path d="M37750 61050
L37750 61450
" />
<path d="M34750 58050
L34750 58450
" />
<path d="M35750 58050
L35750 58450
" />
<path d="M35750 61050
L35750 61450
" />
<path d="M34750 61050
L34750 61450
" />
<path d="M36750 61050
L36750 61450
" />
<path d="M36750 58050
L36750 58450
" />
<path d="M33750 58050
L33750 58450
" />
<path d="M33750 61050
L33750 61450
" />
</g>
<g style="fill:#FFFFFF; fill-opacity:0.0; 
stroke:#FFFFFF; stroke-width:19.685; stroke-opacity:1; 
stroke-linecap:round; stroke-linejoin:round;">
</g>
<g style="fill:#FFFFFF; fill-opacity:1.0; 
stroke:#FFFFFF; stroke-width:19.685; stroke-opacity:1; 
stroke-linecap:round; stroke-linejoin:round;">
<polyline style="fill-rule:evenodd;"
points="30459,61740
30459,60759
31040,60759
31040,61740
30459,61740
" /> 
</g>
<g style="fill:#FFFFFF; fill-opacity:1.0; 
stroke:#FFFFFF; stroke-width:600; stroke-opacity:1; 
stroke-linecap:round; stroke-linejoin:round;">
</g>
<g style="fill:#FFFFFF; fill-opacity:0.0; 
stroke:#FFFFFF; stroke-width:600; stroke-opacity:1; 
stroke-linecap:round; stroke-linejoin:round;">
<path d="M31750 61050
L31750 61450
" />
<path d="M32750 61050
L32750 61450
" />
<path d="M32750 58050
L32750 58450
" />
<path d="M31750 58050
L31750 58450
" />
<path d="M30750 58050
L30750 58450
" />
</g>
<g style="fill:#FFFFFF; fill-opacity:0.0; 
stroke:#FFFFFF; stroke-width:700; stroke-opacity:1; 
stroke-linecap:round; stroke-linejoin:round;">
<path d="M41600 58650
L41600 58850
" />
<path d="M43400 58650
L43400 58850
" />
<path d="M41600 61150
L41600 61350
" />
<path d="M43400 61150
L43400 61350
" />
</g>
<g style="fill:#FFFFFF; fill-opacity:0.0; 
stroke:#FFFFFF; stroke-width:19.685; stroke-opacity:1; 
stroke-linecap:round; stroke-linejoin:round;">
</g>
<g style="fill:#FFFFFF; fill-opacity:1.0; 
stroke:#FFFFFF; stroke-width:19.685; stroke-opacity:1; 
stroke-linecap:round; stroke-linejoin:round;">
<circle cx="56500" cy="51253.9" r="315.157" /> 
<circle cx="56500" cy="50352.4" r="315.157" /> 
<circle cx="56500" cy="49450.8" r="315.157" /> 
<circle cx="56500" cy="48549.2" r="315.157" /> 
<circle cx="56500" cy="47647.6" r="315.157" /> 
<circle cx="55500" cy="50803.1" r="315.157" /> 
<circle cx="55500" cy="49901.6" r="315.157" /> 
<circle cx="55500" cy="49000" r="315.157" /> 
<circle cx="55500" cy="48098.4" r="315.157" /> 
<circle cx="55500" cy="47196.9" r="315.157" /> 
<circle cx="54500" cy="51253.9" r="315.157" /> 
<circle cx="54500" cy="50352.4" r="315.157" /> 
<circle cx="54500" cy="49450.8" r="315.157" /> 
<circle cx="54500" cy="48549.2" r="315.157" /> 
<circle cx="54500" cy="47647.6" r="315.157" /> 
<circle cx="55500" cy="54000" r="777.559" /> 
<circle cx="55500" cy="44000" r="777.559" /> 
<circle cx="49100" cy="60900" r="240.157" /> 
<circle cx="45500" cy="52850" r="240.157" /> 
<circle cx="44700" cy="47750" r="240.157" /> 
<circle cx="32000" cy="43250" r="240.157" /> 
<circle cx="35150" cy="47000" r="240.157" /> 
<circle cx="31450" cy="47500" r="240.157" /> 
<circle cx="30000" cy="49450" r="240.157" /> 
<circle cx="40350" cy="50650" r="240.157" /> 
<circle cx="42150" cy="53050" r="240.157" /> 
<circle cx="40500" cy="46600" r="240.157" /> 
<circle cx="30000" cy="44000" r="240.157" /> 
<circle cx="28400" cy="50750" r="240.157" /> 
<circle cx="38500" cy="61250" r="240.157" /> 
<circle cx="28400" cy="51750" r="240.157" /> 
<circle cx="28400" cy="52750" r="240.157" /> 
<circle cx="28400" cy="53750" r="240.157" /> 
<circle cx="28400" cy="54750" r="240.157" /> 
<circle cx="48150" cy="57750" r="240.157" /> 
<circle cx="30760" cy="57330" r="240.157" /> 
<circle cx="31760" cy="57330" r="240.157" /> 
<circle cx="32760" cy="57330" r="240.157" /> 
<circle cx="33760" cy="57330" r="240.157" /> 
<circle cx="34760" cy="57330" r="240.157" /> 
<circle cx="35760" cy="57330" r="240.157" /> 
<circle cx="36760" cy="57330" r="240.157" /> 
<circle cx="37760" cy="57330" r="240.157" /> 
<circle cx="43400" cy="57750" r="240.157" /> 
<circle cx="53800" cy="47650" r="240.157" /> 
<circle cx="48640" cy="44640" r="240.157" /> 
<circle cx="48650" cy="43390" r="240.157" /> 
<circle cx="53800" cy="48550" r="240.157" /> 
<circle cx="53800" cy="49450" r="240.157" /> 
<circle cx="57200" cy="49450" r="240.157" /> 
<circle cx="57200" cy="50350" r="240.157" /> 
</g>
<g style="fill:#FFFFFF; fill-opacity:1.0; 
stroke:#FFFFFF; stroke-width:80; stroke-opacity:1; 
stroke-linecap:round; stroke-linejoin:round;">
</g>
<g style="fill:#FFFFFF; fill-opacity:0.0; 
stroke:#FFFFFF; stroke-width:80; stroke-opacity:1; 
stroke-linecap:round; stroke-linejoin:round;">
<path d="M44700 47750
L41650 47750
" />
<path d="M41650 47750
L40500 46600
" />
</g>
<g style="fill:#FFFFFF; fill-opacity:0.0; 
stroke:#FFFFFF; stroke-width:300; stroke-opacity:1; 
stroke-linecap:round; stroke-linejoin:round;">
<path d="M26750 44500
L30000 44500
" />
<path d="M30000 44500
L30000 44000
" />
<path d="M27750 50750
L28400 50750
" />
<path d="M37750 61250
L38500 61250
" />
</g>
<g style="fill:#FFFFFF; fill-opacity:0.0; 
stroke:#FFFFFF; stroke-width:250; stroke-opacity:1; 
stroke-linecap:round; stroke-linejoin:round;">
<path d="M30750 61250
L31750 61250
" />
<path d="M31750 61250
L32750 61250
" />
<path d="M32750 61250
L33750 61250
" />
<path d="M33750 61250
L34750 61250
" />
<path d="M34750 61250
L35750 61250
" />
<path d="M35750 61250
L36750 61250
" />
<path d="M36750 61250
L37750 61250
" />
</g>
<g style="fill:#FFFFFF; fill-opacity:0.0; 
stroke:#FFFFFF; stroke-width:300; stroke-opacity:1; 
stroke-linecap:round; stroke-linejoin:round;">
<path d="M27750 51750
L28400 51750
" />
<path d="M27750 52750
L28400 52750
" />
<path d="M27750 53750
L28400 53750
" />
<path d="M27750 54750
L28400 54750
" />
</g>
<g style="fill:#FFFFFF; fill-opacity:0.0; 
stroke:#FFFFFF; stroke-width:250; stroke-opacity:1; 
stroke-linecap:round; stroke-linejoin:round;">
<path d="M48150 58650
L48150 57750
" />
</g>
<g style="fill:#FFFFFF; fill-opacity:0.0; 
stroke:#FFFFFF; stroke-width:100; stroke-opacity:1; 
stroke-linecap:round; stroke-linejoin:round;">
<path d="M48150 58750
L48150 58650
" />
</g>
<g style="fill:#FFFFFF; fill-opacity:0.0; 
stroke:#FFFFFF; stroke-width:150; stroke-opacity:1; 
stroke-linecap:round; stroke-linejoin:round;">
<path d="M30750 57340
L30760 57330
" />
</g>
<g style="fill:#FFFFFF; fill-opacity:0.0; 
stroke:#FFFFFF; stroke-width:250; stroke-opacity:1; 
stroke-linecap:round; stroke-linejoin:round;">
<path d="M30750 58250
L30750 57340
" />
<path d="M31750 58250
L31750 57340
" />
</g>
<g style="fill:#FFFFFF; fill-opacity:0.0; 
stroke:#FFFFFF; stroke-width:150; stroke-opacity:1; 
stroke-linecap:round; stroke-linejoin:round;">
<path d="M31750 57340
L31760 57330
" />
</g>
<g style="fill:#FFFFFF; fill-opacity:0.0; 
stroke:#FFFFFF; stroke-width:250; stroke-opacity:1; 
stroke-linecap:round; stroke-linejoin:round;">
<path d="M32750 58250
L32750 57340
" />
</g>
<g style="fill:#FFFFFF; fill-opacity:0.0; 
stroke:#FFFFFF; stroke-width:150; stroke-opacity:1; 
stroke-linecap:round; stroke-linejoin:round;">
<path d="M32750 57340
L32760 57330
" />
<path d="M33750 57340
L33760 57330
" />
</g>
<g style="fill:#FFFFFF; fill-opacity:0.0; 
stroke:#FFFFFF; stroke-width:250; stroke-opacity:1; 
stroke-linecap:round; stroke-linejoin:round;">
<path d="M33750 58250
L33750 57340
" />
<path d="M34750 58250
L34750 57340
" />
</g>
<g style="fill:#FFFFFF; fill-opacity:0.0; 
stroke:#FFFFFF; stroke-width:150; stroke-opacity:1; 
stroke-linecap:round; stroke-linejoin:round;">
<path d="M34750 57340
L34760 57330
" />
<path d="M35750 57340
L35760 57330
" />
</g>
<g style="fill:#FFFFFF; fill-opacity:0.0; 
stroke:#FFFFFF; stroke-width:250; stroke-opacity:1; 
stroke-linecap:round; stroke-linejoin:round;">
<path d="M35750 58250
L35750 57340
" />
</g>
<g style="fill:#FFFFFF; fill-opacity:0.0; 
stroke:#FFFFFF; stroke-width:150; stroke-opacity:1; 
stroke-linecap:round; stroke-linejoin:round;">
<path d="M36750 57340
L36760 57330
" />
</g>
<g style="fill:#FFFFFF; fill-opacity:0.0; 
stroke:#FFFFFF; stroke-width:250; stroke-opacity:1; 
stroke-linecap:round; stroke-linejoin:round;">
<path d="M36750 58250
L36750 57340
" />
<path d="M37750 58250
L37750 57340
" />
</g>
<g style="fill:#FFFFFF; fill-opacity:0.0; 
stroke:#FFFFFF; stroke-width:150; stroke-opacity:1; 
stroke-linecap:round; stroke-linejoin:round;">
<path d="M37750 57340
L37760 57330
" />
</g>
<g style="fill:#FFFFFF; fill-opacity:0.0; 
stroke:#FFFFFF; stroke-width:250; stroke-opacity:1; 
stroke-linecap:round; stroke-linejoin:round;">
<path d="M43400 58750
L43400 57750
" />
<path d="M53802 47647
L53800 47650
" />
<path d="M54500 47647
L53802 47647
" />
</g>
<g style="fill:#FFFFFF; fill-opacity:0.0; 
stroke:#FFFFFF; stroke-width:80; stroke-opacity:1; 
stroke-linecap:round; stroke-linejoin:round;">
<path d="M48640 43400
L48650 43390
" />
</g>
<g style="fill:#FFFFFF; fill-opacity:0.0; 
stroke:#FFFFFF; stroke-width:200; stroke-opacity:1; 
stroke-linecap:round; stroke-linejoin:round;">
<path d="M48640 44640
L48640 43400
" />
</g>
<g style="fill:#FFFFFF; fill-opacity:0.0; 
stroke:#FFFFFF; stroke-width:250; stroke-opacity:1; 
stroke-linecap:round; stroke-linejoin:round;">
<path d="M53800 48549
L53800 48550
" />
<path d="M54500 48549
L53800 48549
" />
<path d="M54040 49450
L54039 49450
" />
<path d="M54500 49450
L54040 49450
" />
<path d="M54039 49450
L53800 49450
" />
<path d="M57199 49450
L57200 49450
" />
<path d="M56500 49450
L57199 49450
" />
<path d="M57197 50352
L57200 50350
" />
<path d="M56500 50352
L57197 50352
" />
</g>
<g style="fill:#FFFFFF; fill-opacity:1.0; 
stroke:#FFFFFF; stroke-width:100; stroke-opacity:1; 
stroke-linecap:round; stroke-linejoin:round;">
<polyline style="fill-rule:evenodd;"
points="59525,62025
57600,62025
57600,50270
57539,50123
57426,50011
57279,49950
57120,49949
56973,50010
56906,50077
56896,50077
56769,49949
56652,49901
56768,49853
56896,49725
56910,49725
56973,49788
57120,49849
57279,49850
57426,49789
57538,49676
57599,49529
57600,49370
57539,49223
57426,49111
57279,49050
57120,49049
56973,49110
56908,49175
56896,49175
56769,49048
56652,48999
56768,48952
56902,48818
56974,48644
56975,48455
56902,48280
56769,48146
56652,48098
56768,48050
56902,47917
56974,47742
56975,47553
56902,47378
56769,47245
56594,47172
56437,47172
56437,43814
56295,43469
56031,43205
55687,43062
55314,43062
54969,43204
54705,43468
54562,43812
54562,44185
54704,44530
54968,44794
55312,44937
55685,44937
56030,44795
56294,44531
56437,44187
56437,43814
56437,47172
56405,47172
56231,47244
56097,47378
56025,47552
56024,47741
56097,47916
56230,48050
56347,48098
56231,48146
56097,48279
56025,48454
56024,48643
56097,48817
56230,48951
56347,49000
56231,49047
56097,49181
56025,49355
56024,49544
56097,49719
56230,49853
56347,49901
56231,49949
56097,50082
56025,50257
56024,50446
56097,50621
56230,50754
56347,50803
56231,50851
56097,50984
56025,51159
56024,51348
56097,51522
56230,51656
56405,51728
56594,51729
56768,51656
56902,51523
56974,51348
56975,51159
56902,50985
56769,50851
56652,50803
56768,50755
56896,50627
56911,50627
56973,50688
57120,50749
57279,50750
57426,50689
57538,50576
57599,50429
57600,50270
57600,62025
56437,62025
56437,53814
56295,53469
56031,53205
55975,53182
55975,50709
55902,50534
55769,50400
55652,50352
55768,50304
55902,50170
55974,49996
55975,49807
55902,49632
55769,49499
55652,49450
55768,49402
55902,49269
55974,49094
55975,48905
55902,48731
55769,48597
55652,48549
55768,48501
55902,48367
55974,48193
55975,48004
55902,47829
55769,47695
55652,47647
55768,47599
55902,47466
55974,47291
55975,47102
55902,46928
55769,46794
55594,46721
55405,46721
55231,46793
55097,46927
55025,47101
55024,47290
55097,47465
55230,47599
55347,47647
55231,47695
55097,47829
55025,48003
55024,48192
55097,48367
55230,48500
55347,48549
55231,48597
55097,48730
55025,48905
55024,49094
55097,49268
55230,49402
55347,49450
55231,49498
55097,49632
55025,49806
55024,49995
55097,50170
55230,50304
55347,50352
55231,50400
55097,50533
55025,50708
55024,50897
55097,51071
55230,51205
55405,51278
55594,51278
55768,51206
55902,51072
55974,50898
55975,50709
55975,53182
55687,53062
55314,53062
55079,53159
55079,51341
55069,51113
55001,50951
54975,50942
54975,50258
54902,50083
54769,49949
54652,49901
54768,49853
54902,49720
54974,49545
54975,49356
54902,49182
54769,49048
54652,48999
54768,48952
54902,48818
54974,48644
54975,48455
54902,48280
54769,48146
54652,48098
54768,48050
54902,47917
54974,47742
54975,47553
54902,47378
54769,47245
54594,47172
54405,47172
54231,47244
54103,47372
54088,47372
54026,47311
53879,47250
53720,47249
53573,47310
53461,47423
53400,47570
53399,47729
53460,47876
53573,47988
53720,48049
53879,48050
54026,47989
54093,47922
54103,47922
54230,48050
54347,48098
54231,48146
54103,48274
54089,48274
54026,48211
53879,48150
53720,48149
53573,48210
53461,48323
53400,48470
53399,48629
53460,48776
53573,48888
53720,48949
53879,48950
54026,48889
54091,48824
54103,48824
54230,48951
54347,49000
54231,49047
54103,49175
54091,49175
54026,49111
53879,49050
53720,49049
53573,49110
53461,49223
53400,49370
53399,49529
53460,49676
53573,49788
53720,49849
53879,49850
54026,49789
54089,49725
54103,49725
54230,49853
54347,49901
54231,49949
54097,50082
54025,50257
54024,50446
54097,50621
54218,50742
54197,50751
54166,50849
54500,51183
54833,50849
54802,50751
54780,50743
54902,50621
54974,50447
54975,50258
54975,50942
54904,50920
54570,51253
54904,51587
55001,51556
55079,51341
55079,53159
54969,53204
54833,53340
54833,51657
54500,51324
54429,51395
54429,51253
54095,50920
53998,50951
53920,51166
53930,51394
53998,51556
54095,51587
54429,51253
54429,51395
54166,51657
54197,51755
54412,51833
54640,51823
54802,51755
54833,51657
54833,53340
54705,53468
54562,53812
54562,54185
54704,54530
54968,54794
55312,54937
55685,54937
56030,54795
56294,54531
56437,54187
56437,53814
56437,62025
49050,62025
49050,43310
48989,43163
48876,43051
48729,42990
48570,42989
48423,43050
48311,43163
48250,43310
48249,43469
48310,43616
48390,43695
48390,44324
48301,44413
48240,44560
48239,44719
48300,44866
48413,44978
48560,45039
48719,45040
48866,44979
48978,44866
49039,44719
49040,44560
48979,44413
48890,44324
48890,43715
48988,43616
49049,43469
49050,43310
49050,62025
48650,62025
48650,61361
48650,61138
48650,58861
48650,58638
48611,58446
48503,58284
48425,58232
48425,58040
48488,57976
48549,57829
48550,57670
48489,57523
48376,57411
48229,57350
48070,57349
47923,57410
47811,57523
47750,57670
47749,57829
47810,57976
47875,58040
47875,58232
47796,58284
47688,58446
47650,58638
47650,58861
47688,59053
47796,59215
47958,59323
48150,59361
48341,59323
48503,59215
48611,59053
48650,58861
48650,61138
48611,60946
48503,60784
48341,60676
48150,60638
47958,60676
47796,60784
47688,60946
47650,61138
47650,61361
47688,61553
47796,61715
47958,61823
48150,61861
48341,61823
48503,61715
48611,61553
48650,61361
48650,62025
46950,62025
46950,61400
46950,61300
46950,61200
46950,61100
46950,58900
46950,58800
46950,58700
46950,58600
46885,58374
46738,58190
46533,58076
46492,58067
46400,58114
46400,58700
46950,58700
46950,58800
46400,58800
46400,59385
46492,59432
46533,59423
46738,59309
46885,59125
46950,58900
46950,61100
46885,60874
46738,60690
46533,60576
46492,60567
46400,60614
46400,61200
46950,61200
46950,61300
46400,61300
46400,61885
46492,61932
46533,61923
46738,61809
46885,61625
46950,61400
46950,62025
46300,62025
46300,61885
46300,61300
46300,61200
46300,60614
46300,59385
46300,58800
46300,58700
46300,58114
46207,58067
46166,58076
45961,58190
45814,58374
45750,58600
45750,58700
46300,58700
46300,58800
45750,58800
45750,58900
45814,59125
45961,59309
46166,59423
46207,59432
46300,59385
46300,60614
46207,60567
46166,60576
45961,60690
45814,60874
45750,61100
45750,61200
46300,61200
46300,61300
45750,61300
45750,61400
45814,61625
45961,61809
46166,61923
46207,61932
46300,61885
46300,62025
43900,62025
43900,61361
43900,61138
43900,58861
43900,58638
43861,58446
43753,58284
43675,58232
43675,58040
43738,57976
43799,57829
43800,57670
43739,57523
43626,57411
43479,57350
43320,57349
43173,57410
43061,57523
43000,57670
42999,57829
43060,57976
43125,58040
43125,58232
43046,58284
42938,58446
42900,58638
42900,58861
42938,59053
43046,59215
43208,59323
43400,59361
43591,59323
43753,59215
43861,59053
43900,58861
43900,61138
43861,60946
43753,60784
43591,60676
43400,60638
43208,60676
43046,60784
42938,60946
42900,61138
42900,61361
42938,61553
43046,61715
43208,61823
43400,61861
43591,61823
43753,61715
43861,61553
43900,61361
43900,62025
42200,62025
42200,61400
42200,61300
42200,61200
42200,61100
42200,58900
42200,58800
42200,58700
42200,58600
42135,58374
41988,58190
41783,58076
41742,58067
41650,58114
41650,58700
42200,58700
42200,58800
41650,58800
41650,59385
41742,59432
41783,59423
41988,59309
42135,59125
42200,58900
42200,61100
42135,60874
41988,60690
41783,60576
41742,60567
41650,60614
41650,61200
42200,61200
42200,61300
41650,61300
41650,61885
41742,61932
41783,61923
41988,61809
42135,61625
42200,61400
42200,62025
41550,62025
41550,61885
41550,61300
41550,61200
41550,60614
41550,59385
41550,58800
41550,58700
41550,58114
41457,58067
41416,58076
41211,58190
41064,58374
41000,58600
41000,58700
41550,58700
41550,58800
41000,58800
41000,58900
41064,59125
41211,59309
41416,59423
41457,59432
41550,59385
41550,60614
41457,60567
41416,60576
41211,60690
41064,60874
41000,61100
41000,61200
41550,61200
41550,61300
41000,61300
41000,61400
41064,61625
41211,61809
41416,61923
41457,61932
41550,61885
41550,62025
38900,62025
38900,61170
38839,61023
38726,60911
38579,60850
38420,60849
38273,60910
38234,60950
38200,60950
38200,58462
38200,58037
38165,57865
38068,57719
38025,57690
38025,57630
38098,57556
38159,57409
38160,57250
38099,57103
37986,56991
37839,56930
37680,56929
37533,56990
37421,57103
37360,57250
37359,57409
37420,57556
37475,57610
37475,57690
37431,57719
37334,57865
37300,58037
37300,58462
37334,58634
37431,58780
37577,58878
37750,58912
37922,58878
38068,58780
38165,58634
38200,58462
38200,60950
38182,60950
38165,60865
38068,60719
37922,60621
37750,60587
37577,60621
37431,60719
37334,60865
37312,60975
37200,60975
37200,58462
37200,58037
37165,57865
37068,57719
37025,57690
37025,57630
37098,57556
37159,57409
37160,57250
37099,57103
36986,56991
36839,56930
36680,56929
36533,56990
36421,57103
36360,57250
36359,57409
36420,57556
36475,57610
36475,57690
36431,57719
36334,57865
36300,58037
36300,58462
36334,58634
36431,58780
36577,58878
36750,58912
36922,58878
37068,58780
37165,58634
37200,58462
37200,60975
37187,60975
37165,60865
37068,60719
36922,60621
36750,60587
36577,60621
36431,60719
36334,60865
36312,60975
36200,60975
36200,58462
36200,58037
36165,57865
36068,57719
36025,57690
36025,57630
36098,57556
36159,57409
36160,57250
36099,57103
35986,56991
35839,56930
35680,56929
35533,56990
35421,57103
35360,57250
35359,57409
35420,57556
35475,57610
35475,57690
35431,57719
35334,57865
35300,58037
35300,58462
35334,58634
35431,58780
35577,58878
35750,58912
35922,58878
36068,58780
36165,58634
36200,58462
36200,60975
36187,60975
36165,60865
36068,60719
35922,60621
35750,60587
35577,60621
35431,60719
35334,60865
35312,60975
35200,60975
35200,58462
35200,58037
35165,57865
35068,57719
35025,57690
35025,57630
35098,57556
35159,57409
35160,57250
35099,57103
34986,56991
34839,56930
34680,56929
34533,56990
34421,57103
34360,57250
34359,57409
34420,57556
34475,57610
34475,57690
34431,57719
34334,57865
34300,58037
34300,58462
34334,58634
34431,58780
34577,58878
34750,58912
34922,58878
35068,58780
35165,58634
35200,58462
35200,60975
35187,60975
35165,60865
35068,60719
34922,60621
34750,60587
34577,60621
34431,60719
34334,60865
34312,60975
34200,60975
34200,58462
34200,58037
34165,57865
34068,57719
34025,57690
34025,57630
34098,57556
34159,57409
34160,57250
34099,57103
33986,56991
33839,56930
33680,56929
33533,56990
33421,57103
33360,57250
33359,57409
33420,57556
33475,57610
33475,57690
33431,57719
33334,57865
33300,58037
33300,58462
33334,58634
33431,58780
33577,58878
33750,58912
33922,58878
34068,58780
34165,58634
34200,58462
34200,60975
34187,60975
34165,60865
34068,60719
33922,60621
33750,60587
33577,60621
33431,60719
33334,60865
33312,60975
33200,60975
33200,58462
33200,58037
33165,57865
33068,57719
33025,57690
33025,57630
33098,57556
33159,57409
33160,57250
33099,57103
32986,56991
32839,56930
32680,56929
32533,56990
32421,57103
32360,57250
32359,57409
32420,57556
32475,57610
32475,57690
32431,57719
32334,57865
32300,58037
32300,58462
32334,58634
32431,58780
32577,58878
32750,58912
32922,58878
33068,58780
33165,58634
33200,58462
33200,60975
33187,60975
33165,60865
33068,60719
32922,60621
32750,60587
32577,60621
32431,60719
32334,60865
32312,60975
32200,60975
32200,58462
32200,58037
32165,57865
32068,57719
32025,57690
32025,57630
32098,57556
32159,57409
32160,57250
32099,57103
31986,56991
31839,56930
31680,56929
31533,56990
31421,57103
31360,57250
31359,57409
31420,57556
31475,57610
31475,57690
31431,57719
31334,57865
31300,58037
31300,58462
31334,58634
31431,58780
31577,58878
31750,58912
31922,58878
32068,58780
32165,58634
32200,58462
32200,60975
32187,60975
32165,60865
32068,60719
31922,60621
31750,60587
31577,60621
31431,60719
31334,60865
31312,60975
31200,60975
31200,60720
31200,58462
31200,58037
31165,57865
31068,57719
31025,57690
31025,57630
31098,57556
31159,57409
31160,57250
31099,57103
30986,56991
30839,56930
30680,56929
30633,56949
30633,46623
30633,46376
30632,46364
30560,46227
30560,44500
30532,44356
30450,44234
30360,44174
30399,44079
30400,43920
30339,43773
30226,43661
30079,43600
29920,43599
29773,43660
29661,43773
29600,43920
29599,44079
29639,44174
29601,44200
27324,44200
27209,44027
26998,43886
26750,43837
26501,43886
26290,44027
26149,44238
26100,44487
26100,44512
26149,44761
26290,44972
26501,45113
26750,45162
26998,45113
27209,44972
27324,44800
29601,44800
29670,44846
29814,44875
30185,44875
30329,44846
30450,44765
30532,44643
30560,44500
30560,46227
30546,46199
30402,46080
30225,46025
30050,46025
30050,46450
30584,46450
30633,46376
30633,46623
30584,46550
30050,46550
30050,46975
30225,46975
30402,46919
30546,46800
30632,46635
30633,46623
30633,56949
30533,56990
30421,57103
30360,57250
30359,57409
30420,57556
30475,57610
30475,57690
30431,57719
30334,57865
30300,58037
30300,58462
30334,58634
30431,58780
30577,58878
30750,58912
30922,58878
31068,58780
31165,58634
31200,58462
31200,60720
31177,60665
31134,60622
31079,60600
31020,60600
30420,60600
30365,60622
30322,60665
30300,60720
30300,60779
30300,61779
30322,61834
30365,61877
30420,61900
30479,61900
31079,61900
31134,61877
31177,61834
31200,61779
31200,61720
31200,61525
31312,61525
31334,61634
31431,61780
31577,61878
31750,61912
31922,61878
32068,61780
32165,61634
32187,61525
32312,61525
32334,61634
32431,61780
32577,61878
32750,61912
32922,61878
33068,61780
33165,61634
33187,61525
33312,61525
33334,61634
33431,61780
33577,61878
33750,61912
33922,61878
34068,61780
34165,61634
34187,61525
34312,61525
34334,61634
34431,61780
34577,61878
34750,61912
34922,61878
35068,61780
35165,61634
35187,61525
35312,61525
35334,61634
35431,61780
35577,61878
35750,61912
35922,61878
36068,61780
36165,61634
36187,61525
36312,61525
36334,61634
36431,61780
36577,61878
36750,61912
36922,61878
37068,61780
37165,61634
37187,61525
37312,61525
37334,61634
37431,61780
37577,61878
37750,61912
37922,61878
38068,61780
38165,61634
38182,61550
38234,61550
38273,61588
38420,61649
38579,61650
38726,61589
38838,61476
38899,61329
38900,61170
38900,62025
29950,62025
29950,46975
29950,46550
29950,46450
29950,46025
29775,46025
29597,46080
29453,46199
29367,46364
29366,46376
29415,46450
29950,46450
29950,46550
29415,46550
29366,46623
29367,46635
29453,46800
29597,46919
29775,46975
29950,46975
29950,62025
28800,62025
28800,54670
28739,54523
28626,54411
28479,54350
28320,54349
28173,54410
28163,54421
28032,54334
27860,54300
27639,54300
27467,54334
27321,54431
27305,54454
27274,54396
27106,54261
27069,54250
27106,54238
27274,54103
27305,54045
27321,54068
27467,54165
27639,54200
27860,54200
28032,54165
28163,54078
28173,54088
28320,54149
28479,54150
28626,54089
28738,53976
28799,53829
28800,53670
28739,53523
28626,53411
28479,53350
28320,53349
28173,53410
28163,53421
28032,53334
27860,53300
27639,53300
27467,53334
27321,53431
27305,53454
27274,53396
27106,53261
27069,53250
27106,53238
27274,53103
27305,53045
27321,53068
27467,53165
27639,53200
27860,53200
28032,53165
28163,53078
28173,53088
28320,53149
28479,53150
28626,53089
28738,52976
28799,52829
28800,52670
28739,52523
28626,52411
28479,52350
28320,52349
28173,52410
28163,52421
28032,52334
27860,52300
27639,52300
27467,52334
27321,52431
27305,52454
27274,52396
27106,52261
27069,52250
27106,52238
27274,52103
27305,52045
27321,52068
27467,52165
27639,52200
27860,52200
28032,52165
28163,52078
28173,52088
28320,52149
28479,52150
28626,52089
28738,51976
28799,51829
28800,51670
28739,51523
28626,51411
28479,51350
28320,51349
28173,51410
28163,51421
28032,51334
27860,51300
27639,51300
27467,51334
27321,51431
27305,51454
27274,51396
27106,51261
27069,51250
27106,51238
27274,51103
27305,51045
27321,51068
27467,51165
27639,51200
27860,51200
28032,51165
28163,51078
28173,51088
28320,51149
28479,51150
28626,51089
28738,50976
28799,50829
28800,50670
28739,50523
28626,50411
28479,50350
28320,50349
28173,50410
28163,50421
28032,50334
27860,50300
27639,50300
27481,50331
27481,46666
27481,46333
27361,46066
27149,45865
26916,45768
26800,45814
26800,46450
27435,46450
27481,46333
27481,46666
27435,46550
26800,46550
26800,47185
26916,47231
27149,47134
27361,46933
27481,46666
27481,50331
27467,50334
27321,50431
27305,50454
27274,50396
27106,50261
26900,50200
26800,50200
26800,50700
26807,50700
26807,50800
26800,50800
26800,51200
26800,51300
26800,51700
26807,51700
26807,51800
26800,51800
26800,52200
26800,52300
26800,52700
26807,52700
26807,52800
26800,52800
26800,53200
26800,53300
26800,53700
26807,53700
26807,53800
26800,53800
26800,54200
26800,54300
26800,54700
26807,54700
26807,54800
26800,54800
26800,55200
26800,55300
26800,55700
26807,55700
26807,55800
26800,55800
26800,56200
26800,56300
26800,56700
26807,56700
26807,56800
26800,56800
26800,57300
26900,57300
27106,57238
27274,57103
27305,57045
27321,57068
27467,57165
27639,57200
27860,57200
28032,57165
28178,57068
28276,56922
28310,56750
28276,56577
28178,56431
28032,56334
27860,56300
27639,56300
27467,56334
27321,56431
27305,56454
27274,56396
27106,56261
27069,56250
27106,56238
27274,56103
27305,56045
27321,56068
27467,56165
27639,56200
27860,56200
28032,56165
28178,56068
28276,55922
28310,55750
28276,55577
28178,55431
28032,55334
27860,55300
27639,55300
27467,55334
27321,55431
27305,55454
27274,55396
27106,55261
27069,55250
27106,55238
27274,55103
27305,55045
27321,55068
27467,55165
27639,55200
27860,55200
28032,55165
28163,55078
28173,55088
28320,55149
28479,55150
28626,55089
28738,54976
28799,54829
28800,54670
28800,62025
26700,62025
26700,57300
26700,56800
26700,56700
26700,56300
26700,56200
26700,55800
26700,55700
26700,55300
26700,55200
26700,54800
26700,54700
26700,54300
26700,54200
26700,53800
26700,53700
26700,53300
26700,53200
26700,52800
26700,52700
26700,52300
26700,52200
26700,51800
26700,51700
26700,51300
26700,51200
26700,50800
26700,50700
26700,50200
26700,47185
26700,46550
26700,46450
26700,45814
26583,45768
26350,45865
26138,46066
26018,46333
26064,46450
26700,46450
26700,46550
26064,46550
26018,46666
26138,46933
26350,47134
26583,47231
26700,47185
26700,50200
26600,50200
26393,50261
26225,50396
26122,50585
26116,50614
26165,50700
26700,50700
26700,50800
26165,50800
26116,50885
26122,50914
26225,51103
26393,51238
26430,51250
26393,51261
26225,51396
26122,51585
26116,51614
26165,51700
26700,51700
26700,51800
26165,51800
26116,51885
26122,51914
26225,52103
26393,52238
26430,52250
26393,52261
26225,52396
26122,52585
26116,52614
26165,52700
26700,52700
26700,52800
26165,52800
26116,52885
26122,52914
26225,53103
26393,53238
26430,53250
26393,53261
26225,53396
26122,53585
26116,53614
26165,53700
26700,53700
26700,53800
26165,53800
26116,53885
26122,53914
26225,54103
26393,54238
26430,54250
26393,54261
26225,54396
26122,54585
26116,54614
26165,54700
26700,54700
26700,54800
26165,54800
26116,54885
26122,54914
26225,55103
26393,55238
26430,55250
26393,55261
26225,55396
26122,55585
26116,55614
26165,55700
26700,55700
26700,55800
26165,55800
26116,55885
26122,55914
26225,56103
26393,56238
26430,56250
26393,56261
26225,56396
26122,56585
26116,56614
26165,56700
26700,56700
26700,56800
26165,56800
26116,56885
26122,56914
26225,57103
26393,57238
26600,57300
26700,57300
26700,62025
25225,62025
25225,42725
59525,42725
59525,62025
" /> 
</g>
<g style="fill:#000000; fill-opacity:1.0; 
stroke:#000000; stroke-width:19.685; stroke-opacity:1; 
stroke-linecap:round; stroke-linejoin:round;">
<circle cx="49100" cy="60900" r="165.157" /> 
<circle cx="45500" cy="52850" r="165.157" /> 
<circle cx="44700" cy="47750" r="165.157" /> 
<circle cx="32000" cy="43250" r="165.157" /> 
<circle cx="35150" cy="47000" r="165.157" /> 
<circle cx="31450" cy="47500" r="165.157" /> 
<circle cx="30000" cy="49450" r="165.157" /> 
<circle cx="40350" cy="50650" r="165.157" /> 
<circle cx="42150" cy="53050" r="165.157" /> 
<circle cx="40500" cy="46600" r="165.157" /> 
<circle cx="30000" cy="44000" r="165.157" /> 
<circle cx="28400" cy="50750" r="165.157" /> 
<circle cx="38500" cy="61250" r="165.157" /> 
<circle cx="28400" cy="51750" r="165.157" /> 
<circle cx="28400" cy="52750" r="165.157" /> 
<circle cx="28400" cy="53750" r="165.157" /> 
<circle cx="28400" cy="54750" r="165.157" /> 
<circle cx="48150" cy="57750" r="165.157" /> 
<circle cx="30760" cy="57330" r="165.157" /> 
<circle cx="31760" cy="57330" r="165.157" /> 
<circle cx="32760" cy="57330" r="165.157" /> 
<circle cx="33760" cy="57330" r="165.157" /> 
<circle cx="34760" cy="57330" r="165.157" /> 
<circle cx="35760" cy="57330" r="165.157" /> 
<circle cx="36760" cy="57330" r="165.157" /> 
<circle cx="37760" cy="57330" r="165.157" /> 
<circle cx="43400" cy="57750" r="165.157" /> 
<circle cx="53800" cy="47650" r="165.157" /> 
<circle cx="48640" cy="44640" r="165.157" /> 
<circle cx="48650" cy="43390" r="165.157" /> 
<circle cx="53800" cy="48550" r="165.157" /> 
<circle cx="53800" cy="49450" r="165.157" /> 
<circle cx="57200" cy="49450" r="165.157" /> 
<circle cx="57200" cy="50350" r="165.157" /> 
<circle cx="30000" cy="46500" r="140.157" /> 
<circle cx="30000" cy="44500" r="140.157" /> 
<circle cx="26750" cy="46500" r="215.157" /> 
<circle cx="26750" cy="44500" r="215.157" /> 
<circle cx="26750" cy="50750" r="215.157" /> 
<circle cx="27750" cy="50750" r="215.157" /> 
<circle cx="26750" cy="51750" r="215.157" /> 
<circle cx="27750" cy="51750" r="215.157" /> 
<circle cx="26750" cy="52750" r="215.157" /> 
<circle cx="27750" cy="52750" r="215.157" /> 
<circle cx="26750" cy="53750" r="215.157" /> 
<circle cx="27750" cy="53750" r="215.157" /> 
<circle cx="26750" cy="54750" r="215.157" /> 
<circle cx="27750" cy="54750" r="215.157" /> 
<circle cx="26750" cy="55750" r="215.157" /> 
<circle cx="27750" cy="55750" r="215.157" /> 
<circle cx="26750" cy="56750" r="215.157" /> 
<circle cx="27750" cy="56750" r="215.157" /> 
<circle cx="46350" cy="58750" r="190.157" /> 
<circle cx="48150" cy="58750" r="190.157" /> 
<circle cx="46350" cy="61250" r="190.157" /> 
<circle cx="48150" cy="61250" r="190.157" /> 
<circle cx="37750" cy="58250" r="150.157" /> 
<circle cx="37750" cy="61250" r="150.157" /> 
<circle cx="34750" cy="58250" r="150.157" /> 
<circle cx="35750" cy="58250" r="150.157" /> 
<circle cx="35750" cy="61250" r="150.157" /> 
<circle cx="34750" cy="61250" r="150.157" /> 
<circle cx="36750" cy="61250" r="150.157" /> 
<circle cx="36750" cy="58250" r="150.157" /> 
<circle cx="33750" cy="58250" r="150.157" /> 
<circle cx="33750" cy="61250" r="150.157" /> 
<circle cx="30750" cy="61250" r="150.157" /> 
<circle cx="31750" cy="61250" r="150.157" /> 
<circle cx="32750" cy="61250" r="150.157" /> 
<circle cx="32750" cy="58250" r="150.157" /> 
<circle cx="31750" cy="58250" r="150.157" /> 
<circle cx="30750" cy="58250" r="150.157" /> 
<circle cx="41600" cy="58750" r="190.157" /> 
<circle cx="43400" cy="58750" r="190.157" /> 
<circle cx="41600" cy="61250" r="190.157" /> 
<circle cx="43400" cy="61250" r="190.157" /> 
<circle cx="56500" cy="51253.9" r="215.157" /> 
<circle cx="56500" cy="50352.4" r="215.157" /> 
<circle cx="56500" cy="49450.8" r="215.157" /> 
<circle cx="56500" cy="48549.2" r="215.157" /> 
<circle cx="56500" cy="47647.6" r="215.157" /> 
<circle cx="55500" cy="50803.1" r="215.157" /> 
<circle cx="55500" cy="49901.6" r="215.157" /> 
<circle cx="55500" cy="49000" r="215.157" /> 
<circle cx="55500" cy="48098.4" r="215.157" /> 
<circle cx="55500" cy="47196.9" r="215.157" /> 
<circle cx="54500" cy="51253.9" r="215.157" /> 
<circle cx="54500" cy="50352.4" r="215.157" /> 
<circle cx="54500" cy="49450.8" r="215.157" /> 
<circle cx="54500" cy="48549.2" r="215.157" /> 
<circle cx="54500" cy="47647.6" r="215.157" /> 
<circle cx="55500" cy="54000" r="616.142" /> 
<circle cx="55500" cy="44000" r="616.142" /> 
</g> 
</svg>
